sim/uart_axi4_stream.vcd
$date
   Tue Sep 28 02:16:44 2021
$end
$version
  2020.2
$end
$timescale
  1ps
$end
$scope module top $end
$var reg 1 ! clk $end
$var reg 1 " rst $end
$scope module inf $end
$var wire 1 # clk $end
$var wire 1 $ rst $end
$var reg 32 % s_axis_tdata [31:0] $end
$var reg 1 & s_axis_tvalid $end
$var reg 1 ' s_axis_tready $end
$var reg 8 ( tid [7:0] $end
$var reg 1 ) tlast $end
$var reg 4 * tdest [3:0] $end
$var reg 4 + tstrb [3:0] $end
$var reg 4 , tkeep [3:0] $end
$var reg 32 - m_axis_tdata [31:0] $end
$var reg 1 . m_axis_tvalid $end
$var reg 1 / m_axis_tready $end
$var reg 1 0 rxd $end
$var reg 1 1 txd $end
$var reg 1 2 tx_busy $end
$var reg 1 3 rx_busy $end
$var reg 1 4 rx_overrun_error $end
$var reg 1 5 rx_frame_error $end
$var reg 16 6 prescale [15:0] $end
$var parameter 32 7 DATA_WIDTH [31:0] $end
$upscope $end
$scope module UART_DUT $end
$var wire 1 8 clk $end
$var wire 1 9 rst $end
$var wire 32 : s_axis_tdata [31:0] $end
$var wire 1 ; s_axis_tvalid $end
$var wire 1 < s_axis_tready $end
$var wire 32 = m_axis_tdata [31:0] $end
$var wire 1 > m_axis_tvalid $end
$var wire 1 ? m_axis_tready $end
$var wire 1 @ rxd $end
$var wire 1 A txd $end
$var wire 1 B tx_busy $end
$var wire 1 C rx_busy $end
$var wire 1 D rx_overrun_error $end
$var wire 1 E rx_frame_error $end
$var wire 16 F prescale [15:0] $end
$var parameter 32 G DATA_WIDTH [31:0] $end
$scope module uart_tx_inst $end
$var wire 1 8 clk $end
$var wire 1 9 rst $end
$var wire 32 : s_axis_tdata [31:0] $end
$var wire 1 ; s_axis_tvalid $end
$var wire 1 < s_axis_tready $end
$var wire 1 A txd $end
$var wire 1 B busy $end
$var wire 16 F prescale [15:0] $end
$var reg 1 H s_axis_tready_reg $end
$var reg 1 I txd_reg $end
$var reg 1 J busy_reg $end
$var reg 33 K data_reg [32:0] $end
$var reg 19 L prescale_reg [18:0] $end
$var reg 6 M bit_cnt [5:0] $end
$var parameter 32 N DATA_WIDTH [31:0] $end
$upscope $end
$scope module uart_rx_inst $end
$var wire 1 8 clk $end
$var wire 1 9 rst $end
$var wire 32 = m_axis_tdata [31:0] $end
$var wire 1 > m_axis_tvalid $end
$var wire 1 ? m_axis_tready $end
$var wire 1 @ rxd $end
$var wire 1 C busy $end
$var wire 1 D overrun_error $end
$var wire 1 E frame_error $end
$var wire 16 F prescale [15:0] $end
$var reg 32 O m_axis_tdata_reg [31:0] $end
$var reg 1 P m_axis_tvalid_reg $end
$var reg 1 Q rxd_reg $end
$var reg 1 R busy_reg $end
$var reg 1 S overrun_error_reg $end
$var reg 1 T frame_error_reg $end
$var reg 32 U data_reg [31:0] $end
$var reg 19 V prescale_reg [18:0] $end
$var reg 6 W bit_cnt [5:0] $end
$var parameter 32 X DATA_WIDTH [31:0] $end
$upscope $end
$upscope $end
$upscope $end
$enddefinitions $end
#0
$dumpvars
0!
1"
0#
1$
bx %
x&
0'
bx (
x)
bx *
bx +
bx ,
b0 -
0.
x/
x0
11
02
03
04
05
b1 6
b100000 7
08
19
bx :
x;
0<
b0 =
0>
x?
1@
1A
0B
0C
0D
0E
b1 F
b100000 G
0H
1I
0J
b0 K
b0 L
b0 M
b100000 N
b0 O
0P
1Q
0R
0S
0T
b0 U
b0 V
b0 W
b100000 X
$end
#4000
1!
1#
0&
b0 (
b0 *
b0 +
b0 ,
18
0;
#8000
0!
0#
08
#11000
0"
0$
09
#12000
1!
1#
1'
18
1<
1H
#16000
0!
0#
08
#20000
1!
1#
18
#24000
0!
0#
08
#28000
1!
1#
18
#32000
0!
0#
08
#36000
1!
1#
18
#40000
0!
0#
08
#44000
1!
1#
18
#48000
0!
0#
08
#52000
1!
1#
b10100101001000111110111111111100 %
1&
b100010 (
b1 *
b1011 +
b1111 ,
18
b10100101001000111110111111111100 :
1;
#56000
0!
0#
08
#60000
1!
1#
b0 %
0&
0'
b0 (
0)
b0 *
b0 +
b0 ,
01
12
18
b0 :
0;
0<
0@
0A
1B
0H
0I
1J
b110100101001000111110111111111100 K
b111 L
b100001 M
#64000
0!
0#
08
#68000
1!
1#
18
b110 L
0Q
#72000
0!
0#
08
#76000
1!
1#
13
18
1C
b101 L
1R
b10 V
b100010 W
#80000
0!
0#
08
#84000
1!
1#
18
b100 L
b1 V
#88000
0!
0#
08
#92000
1!
1#
18
b11 L
b0 V
#96000
0!
0#
08
#100000
1!
1#
18
b10 L
b111 V
b100001 W
#104000
0!
0#
08
#108000
1!
1#
18
b1 L
b110 V
#112000
0!
0#
08
#116000
1!
1#
18
b0 L
b101 V
#120000
0!
0#
08
#124000
1!
1#
18
b11010010100100011111011111111110 K
b111 L
b100000 M
b100 V
#128000
0!
0#
08
#132000
1!
1#
18
b110 L
b11 V
#136000
0!
0#
08
#140000
1!
1#
18
b101 L
b10 V
#144000
0!
0#
08
#148000
1!
1#
18
b100 L
b1 V
#152000
0!
0#
08
#156000
1!
1#
18
b11 L
b0 V
#160000
0!
0#
08
#164000
1!
1#
18
b10 L
b111 V
b100000 W
#168000
0!
0#
08
#172000
1!
1#
18
b1 L
b110 V
#176000
0!
0#
08
#180000
1!
1#
18
b0 L
b101 V
#184000
0!
0#
08
#188000
1!
1#
18
b1101001010010001111101111111111 K
b111 L
b11111 M
b100 V
#192000
0!
0#
08
#196000
1!
1#
18
b110 L
b11 V
#200000
0!
0#
08
#204000
1!
1#
18
b101 L
b10 V
#208000
0!
0#
08
#212000
1!
1#
18
b100 L
b1 V
#216000
0!
0#
08
#220000
1!
1#
18
b11 L
b0 V
#224000
0!
0#
08
#228000
1!
1#
18
b10 L
b111 V
b11111 W
#232000
0!
0#
08
#236000
1!
1#
18
b1 L
b110 V
#240000
0!
0#
08
#244000
1!
1#
18
b0 L
b101 V
#248000
0!
0#
08
#252000
1!
1#
11
18
1@
1A
1I
b110100101001000111110111111111 K
b111 L
b11110 M
b100 V
#256000
0!
0#
08
#260000
1!
1#
18
b110 L
1Q
b11 V
#264000
0!
0#
08
#268000
1!
1#
18
b101 L
b10 V
#272000
0!
0#
08
#276000
1!
1#
18
b100 L
b1 V
#280000
0!
0#
08
#284000
1!
1#
18
b11 L
b0 V
#288000
0!
0#
08
#292000
1!
1#
18
b10 L
b10000000000000000000000000000000 U
b111 V
b11110 W
#296000
0!
0#
08
#300000
1!
1#
18
b1 L
b110 V
#304000
0!
0#
08
#308000
1!
1#
18
b0 L
b101 V
#312000
0!
0#
08
#316000
1!
1#
18
b11010010100100011111011111111 K
b111 L
b11101 M
b100 V
#320000
0!
0#
08
#324000
1!
1#
18
b110 L
b11 V
#328000
0!
0#
08
#332000
1!
1#
18
b101 L
b10 V
#336000
0!
0#
08
#340000
1!
1#
18
b100 L
b1 V
#344000
0!
0#
08
#348000
1!
1#
18
b11 L
b0 V
#352000
0!
0#
08
#356000
1!
1#
18
b10 L
b11000000000000000000000000000000 U
b111 V
b11101 W
#360000
0!
0#
08
#364000
1!
1#
18
b1 L
b110 V
#368000
0!
0#
08
#372000
1!
1#
18
b0 L
b101 V
#376000
0!
0#
08
#380000
1!
1#
18
b1101001010010001111101111111 K
b111 L
b11100 M
b100 V
#384000
0!
0#
08
#388000
1!
1#
18
b110 L
b11 V
#392000
0!
0#
08
#396000
1!
1#
18
b101 L
b10 V
#400000
0!
0#
08
#404000
1!
1#
18
b100 L
b1 V
#408000
0!
0#
08
#412000
1!
1#
18
b11 L
b0 V
#416000
0!
0#
08
#420000
1!
1#
18
b10 L
b11100000000000000000000000000000 U
b111 V
b11100 W
#424000
0!
0#
08
#428000
1!
1#
18
b1 L
b110 V
#432000
0!
0#
08
#436000
1!
1#
18
b0 L
b101 V
#440000
0!
0#
08
#444000
1!
1#
18
b110100101001000111110111111 K
b111 L
b11011 M
b100 V
#448000
0!
0#
08
#452000
1!
1#
18
b110 L
b11 V
#456000
0!
0#
08
#460000
1!
1#
18
b101 L
b10 V
#464000
0!
0#
08
#468000
1!
1#
18
b100 L
b1 V
#472000
0!
0#
08
#476000
1!
1#
18
b11 L
b0 V
#480000
0!
0#
08
#484000
1!
1#
18
b10 L
b11110000000000000000000000000000 U
b111 V
b11011 W
#488000
0!
0#
08
#492000
1!
1#
18
b1 L
b110 V
#496000
0!
0#
08
#500000
1!
1#
18
b0 L
b101 V
#504000
0!
0#
08
#508000
1!
1#
18
b11010010100100011111011111 K
b111 L
b11010 M
b100 V
#512000
0!
0#
08
#516000
1!
1#
18
b110 L
b11 V
#520000
0!
0#
08
#524000
1!
1#
18
b101 L
b10 V
#528000
0!
0#
08
#532000
1!
1#
18
b100 L
b1 V
#536000
0!
0#
08
#540000
1!
1#
18
b11 L
b0 V
#544000
0!
0#
08
#548000
1!
1#
18
b10 L
b11111000000000000000000000000000 U
b111 V
b11010 W
#552000
0!
0#
08
#556000
1!
1#
18
b1 L
b110 V
#560000
0!
0#
08
#564000
1!
1#
18
b0 L
b101 V
#568000
0!
0#
08
#572000
1!
1#
18
b1101001010010001111101111 K
b111 L
b11001 M
b100 V
#576000
0!
0#
08
#580000
1!
1#
18
b110 L
b11 V
#584000
0!
0#
08
#588000
1!
1#
18
b101 L
b10 V
#592000
0!
0#
08
#596000
1!
1#
18
b100 L
b1 V
#600000
0!
0#
08
#604000
1!
1#
18
b11 L
b0 V
#608000
0!
0#
08
#612000
1!
1#
18
b10 L
b11111100000000000000000000000000 U
b111 V
b11001 W
#616000
0!
0#
08
#620000
1!
1#
18
b1 L
b110 V
#624000
0!
0#
08
#628000
1!
1#
18
b0 L
b101 V
#632000
0!
0#
08
#636000
1!
1#
18
b110100101001000111110111 K
b111 L
b11000 M
b100 V
#640000
0!
0#
08
#644000
1!
1#
18
b110 L
b11 V
#648000
0!
0#
08
#652000
1!
1#
18
b101 L
b10 V
#656000
0!
0#
08
#660000
1!
1#
18
b100 L
b1 V
#664000
0!
0#
08
#668000
1!
1#
18
b11 L
b0 V
#672000
0!
0#
08
#676000
1!
1#
18
b10 L
b11111110000000000000000000000000 U
b111 V
b11000 W
#680000
0!
0#
08
#684000
1!
1#
18
b1 L
b110 V
#688000
0!
0#
08
#692000
1!
1#
18
b0 L
b101 V
#696000
0!
0#
08
#700000
1!
1#
18
b11010010100100011111011 K
b111 L
b10111 M
b100 V
#704000
0!
0#
08
#708000
1!
1#
18
b110 L
b11 V
#712000
0!
0#
08
#716000
1!
1#
18
b101 L
b10 V
#720000
0!
0#
08
#724000
1!
1#
18
b100 L
b1 V
#728000
0!
0#
08
#732000
1!
1#
18
b11 L
b0 V
#736000
0!
0#
08
#740000
1!
1#
18
b10 L
b11111111000000000000000000000000 U
b111 V
b10111 W
#744000
0!
0#
08
#748000
1!
1#
18
b1 L
b110 V
#752000
0!
0#
08
#756000
1!
1#
18
b0 L
b101 V
#760000
0!
0#
08
#764000
1!
1#
18
b1101001010010001111101 K
b111 L
b10110 M
b100 V
#768000
0!
0#
08
#772000
1!
1#
18
b110 L
b11 V
#776000
0!
0#
08
#780000
1!
1#
18
b101 L
b10 V
#784000
0!
0#
08
#788000
1!
1#
18
b100 L
b1 V
#792000
0!
0#
08
#796000
1!
1#
18
b11 L
b0 V
#800000
0!
0#
08
#804000
1!
1#
18
b10 L
b11111111100000000000000000000000 U
b111 V
b10110 W
#808000
0!
0#
08
#812000
1!
1#
18
b1 L
b110 V
#816000
0!
0#
08
#820000
1!
1#
18
b0 L
b101 V
#824000
0!
0#
08
#828000
1!
1#
18
b110100101001000111110 K
b111 L
b10101 M
b100 V
#832000
0!
0#
08
#836000
1!
1#
18
b110 L
b11 V
#840000
0!
0#
08
#844000
1!
1#
18
b101 L
b10 V
#848000
0!
0#
08
#852000
1!
1#
18
b100 L
b1 V
#856000
0!
0#
08
#860000
1!
1#
18
b11 L
b0 V
#864000
0!
0#
08
#868000
1!
1#
18
b10 L
b11111111110000000000000000000000 U
b111 V
b10101 W
#872000
0!
0#
08
#876000
1!
1#
18
b1 L
b110 V
#880000
0!
0#
08
#884000
1!
1#
18
b0 L
b101 V
#888000
0!
0#
08
#892000
1!
1#
01
18
0@
0A
0I
b11010010100100011111 K
b111 L
b10100 M
b100 V
#896000
0!
0#
08
#900000
1!
1#
18
b110 L
0Q
b11 V
#904000
0!
0#
08
#908000
1!
1#
18
b101 L
b10 V
#912000
0!
0#
08
#916000
1!
1#
18
b100 L
b1 V
#920000
0!
0#
08
#924000
1!
1#
18
b11 L
b0 V
#928000
0!
0#
08
#932000
1!
1#
18
b10 L
b1111111111000000000000000000000 U
b111 V
b10100 W
#936000
0!
0#
08
#940000
1!
1#
18
b1 L
b110 V
#944000
0!
0#
08
#948000
1!
1#
18
b0 L
b101 V
#952000
0!
0#
08
#956000
1!
1#
11
18
1@
1A
1I
b1101001010010001111 K
b111 L
b10011 M
b100 V
#960000
0!
0#
08
#964000
1!
1#
18
b110 L
1Q
b11 V
#968000
0!
0#
08
#972000
1!
1#
18
b101 L
b10 V
#976000
0!
0#
08
#980000
1!
1#
18
b100 L
b1 V
#984000
0!
0#
08
#988000
1!
1#
18
b11 L
b0 V
#992000
0!
0#
08
#996000
1!
1#
18
b10 L
b10111111111100000000000000000000 U
b111 V
b10011 W
#1000000
0!
0#
08
#1004000
1!
1#
18
b1 L
b110 V
#1008000
0!
0#
08
#1012000
1!
1#
18
b0 L
b101 V
#1016000
0!
0#
08
#1020000
1!
1#
18
b110100101001000111 K
b111 L
b10010 M
b100 V
#1024000
0!
0#
08
#1028000
1!
1#
18
b110 L
b11 V
#1032000
0!
0#
08
#1036000
1!
1#
18
b101 L
b10 V
#1040000
0!
0#
08
#1044000
1!
1#
18
b100 L
b1 V
#1048000
0!
0#
08
#1052000
1!
1#
18
b11 L
b0 V
#1056000
0!
0#
08
#1060000
1!
1#
18
b10 L
b11011111111110000000000000000000 U
b111 V
b10010 W
#1064000
0!
0#
08
#1068000
1!
1#
18
b1 L
b110 V
#1072000
0!
0#
08
#1076000
1!
1#
18
b0 L
b101 V
#1080000
0!
0#
08
#1084000
1!
1#
18
b11010010100100011 K
b111 L
b10001 M
b100 V
#1088000
0!
0#
08
#1092000
1!
1#
18
b110 L
b11 V
#1096000
0!
0#
08
#1100000
1!
1#
18
b101 L
b10 V
#1104000
0!
0#
08
#1108000
1!
1#
18
b100 L
b1 V
#1112000
0!
0#
08
#1116000
1!
1#
18
b11 L
b0 V
#1120000
0!
0#
08
#1124000
1!
1#
18
b10 L
b11101111111111000000000000000000 U
b111 V
b10001 W
#1128000
0!
0#
08
#1132000
1!
1#
18
b1 L
b110 V
#1136000
0!
0#
08
#1140000
1!
1#
18
b0 L
b101 V
#1144000
0!
0#
08
#1148000
1!
1#
18
b1101001010010001 K
b111 L
b10000 M
b100 V
#1152000
0!
0#
08
#1156000
1!
1#
18
b110 L
b11 V
#1160000
0!
0#
08
#1164000
1!
1#
18
b101 L
b10 V
#1168000
0!
0#
08
#1172000
1!
1#
18
b100 L
b1 V
#1176000
0!
0#
08
#1180000
1!
1#
18
b11 L
b0 V
#1184000
0!
0#
08
#1188000
1!
1#
18
b10 L
b11110111111111100000000000000000 U
b111 V
b10000 W
#1192000
0!
0#
08
#1196000
1!
1#
18
b1 L
b110 V
#1200000
0!
0#
08
#1204000
1!
1#
18
b0 L
b101 V
#1208000
0!
0#
08
#1212000
1!
1#
18
b110100101001000 K
b111 L
b1111 M
b100 V
#1216000
0!
0#
08
#1220000
1!
1#
18
b110 L
b11 V
#1224000
0!
0#
08
#1228000
1!
1#
18
b101 L
b10 V
#1232000
0!
0#
08
#1236000
1!
1#
18
b100 L
b1 V
#1240000
0!
0#
08
#1244000
1!
1#
18
b11 L
b0 V
#1248000
0!
0#
08
#1252000
1!
1#
18
b10 L
b11111011111111110000000000000000 U
b111 V
b1111 W
#1256000
0!
0#
08
#1260000
1!
1#
18
b1 L
b110 V
#1264000
0!
0#
08
#1268000
1!
1#
18
b0 L
b101 V
#1272000
0!
0#
08
#1276000
1!
1#
01
18
0@
0A
0I
b11010010100100 K
b111 L
b1110 M
b100 V
#1280000
0!
0#
08
#1284000
1!
1#
18
b110 L
0Q
b11 V
#1288000
0!
0#
08
#1292000
1!
1#
18
b101 L
b10 V
#1296000
0!
0#
08
#1300000
1!
1#
18
b100 L
b1 V
#1304000
0!
0#
08
#1308000
1!
1#
18
b11 L
b0 V
#1312000
0!
0#
08
#1316000
1!
1#
18
b10 L
b1111101111111111000000000000000 U
b111 V
b1110 W
#1320000
0!
0#
08
#1324000
1!
1#
18
b1 L
b110 V
#1328000
0!
0#
08
#1332000
1!
1#
18
b0 L
b101 V
#1336000
0!
0#
08
#1340000
1!
1#
18
b1101001010010 K
b111 L
b1101 M
b100 V
#1344000
0!
0#
08
#1348000
1!
1#
18
b110 L
b11 V
#1352000
0!
0#
08
#1356000
1!
1#
18
b101 L
b10 V
#1360000
0!
0#
08
#1364000
1!
1#
18
b100 L
b1 V
#1368000
0!
0#
08
#1372000
1!
1#
18
b11 L
b0 V
#1376000
0!
0#
08
#1380000
1!
1#
18
b10 L
b111110111111111100000000000000 U
b111 V
b1101 W
#1384000
0!
0#
08
#1388000
1!
1#
18
b1 L
b110 V
#1392000
0!
0#
08
#1396000
1!
1#
18
b0 L
b101 V
#1400000
0!
0#
08
#1404000
1!
1#
18
b110100101001 K
b111 L
b1100 M
b100 V
#1408000
0!
0#
08
#1412000
1!
1#
18
b110 L
b11 V
#1416000
0!
0#
08
#1420000
1!
1#
18
b101 L
b10 V
#1424000
0!
0#
08
#1428000
1!
1#
18
b100 L
b1 V
#1432000
0!
0#
08
#1436000
1!
1#
18
b11 L
b0 V
#1440000
0!
0#
08
#1444000
1!
1#
18
b10 L
b11111011111111110000000000000 U
b111 V
b1100 W
#1448000
0!
0#
08
#1452000
1!
1#
18
b1 L
b110 V
#1456000
0!
0#
08
#1460000
1!
1#
18
b0 L
b101 V
#1464000
0!
0#
08
#1468000
1!
1#
11
18
1@
1A
1I
b11010010100 K
b111 L
b1011 M
b100 V
#1472000
0!
0#
08
#1476000
1!
1#
18
b110 L
1Q
b11 V
#1480000
0!
0#
08
#1484000
1!
1#
18
b101 L
b10 V
#1488000
0!
0#
08
#1492000
1!
1#
18
b100 L
b1 V
#1496000
0!
0#
08
#1500000
1!
1#
18
b11 L
b0 V
#1504000
0!
0#
08
#1508000
1!
1#
18
b10 L
b10001111101111111111000000000000 U
b111 V
b1011 W
#1512000
0!
0#
08
#1516000
1!
1#
18
b1 L
b110 V
#1520000
0!
0#
08
#1524000
1!
1#
18
b0 L
b101 V
#1528000
0!
0#
08
#1532000
1!
1#
01
18
0@
0A
0I
b1101001010 K
b111 L
b1010 M
b100 V
#1536000
0!
0#
08
#1540000
1!
1#
18
b110 L
0Q
b11 V
#1544000
0!
0#
08
#1548000
1!
1#
18
b101 L
b10 V
#1552000
0!
0#
08
#1556000
1!
1#
18
b100 L
b1 V
#1560000
0!
0#
08
#1564000
1!
1#
18
b11 L
b0 V
#1568000
0!
0#
08
#1572000
1!
1#
18
b10 L
b1000111110111111111100000000000 U
b111 V
b1010 W
#1576000
0!
0#
08
#1580000
1!
1#
18
b1 L
b110 V
#1584000
0!
0#
08
#1588000
1!
1#
18
b0 L
b101 V
#1592000
0!
0#
08
#1596000
1!
1#
18
b110100101 K
b111 L
b1001 M
b100 V
#1600000
0!
0#
08
#1604000
1!
1#
18
b110 L
b11 V
#1608000
0!
0#
08
#1612000
1!
1#
18
b101 L
b10 V
#1616000
0!
0#
08
#1620000
1!
1#
18
b100 L
b1 V
#1624000
0!
0#
08
#1628000
1!
1#
18
b11 L
b0 V
#1632000
0!
0#
08
#1636000
1!
1#
18
b10 L
b100011111011111111110000000000 U
b111 V
b1001 W
#1640000
0!
0#
08
#1644000
1!
1#
18
b1 L
b110 V
#1648000
0!
0#
08
#1652000
1!
1#
18
b0 L
b101 V
#1656000
0!
0#
08
#1660000
1!
1#
11
18
1@
1A
1I
b11010010 K
b111 L
b1000 M
b100 V
#1664000
0!
0#
08
#1668000
1!
1#
18
b110 L
1Q
b11 V
#1672000
0!
0#
08
#1676000
1!
1#
18
b101 L
b10 V
#1680000
0!
0#
08
#1684000
1!
1#
18
b100 L
b1 V
#1688000
0!
0#
08
#1692000
1!
1#
18
b11 L
b0 V
#1696000
0!
0#
08
#1700000
1!
1#
18
b10 L
b10010001111101111111111000000000 U
b111 V
b1000 W
#1704000
0!
0#
08
#1708000
1!
1#
18
b1 L
b110 V
#1712000
0!
0#
08
#1716000
1!
1#
18
b0 L
b101 V
#1720000
0!
0#
08
#1724000
1!
1#
01
18
0@
0A
0I
b1101001 K
b111 L
b111 M
b100 V
#1728000
0!
0#
08
#1732000
1!
1#
18
b110 L
0Q
b11 V
#1736000
0!
0#
08
#1740000
1!
1#
18
b101 L
b10 V
#1744000
0!
0#
08
#1748000
1!
1#
18
b100 L
b1 V
#1752000
0!
0#
08
#1756000
1!
1#
18
b11 L
b0 V
#1760000
0!
0#
08
#1764000
1!
1#
18
b10 L
b1001000111110111111111100000000 U
b111 V
b111 W
#1768000
0!
0#
08
#1772000
1!
1#
18
b1 L
b110 V
#1776000
0!
0#
08
#1780000
1!
1#
18
b0 L
b101 V
#1784000
0!
0#
08
#1788000
1!
1#
11
18
1@
1A
1I
b110100 K
b111 L
b110 M
b100 V
#1792000
0!
0#
08
#1796000
1!
1#
18
b110 L
1Q
b11 V
#1800000
0!
0#
08
#1804000
1!
1#
18
b101 L
b10 V
#1808000
0!
0#
08
#1812000
1!
1#
18
b100 L
b1 V
#1816000
0!
0#
08
#1820000
1!
1#
18
b11 L
b0 V
#1824000
0!
0#
08
#1828000
1!
1#
18
b10 L
b10100100011111011111111110000000 U
b111 V
b110 W
#1832000
0!
0#
08
#1836000
1!
1#
18
b1 L
b110 V
#1840000
0!
0#
08
#1844000
1!
1#
18
b0 L
b101 V
#1848000
0!
0#
08
#1852000
1!
1#
01
18
0@
0A
0I
b11010 K
b111 L
b101 M
b100 V
#1856000
0!
0#
08
#1860000
1!
1#
18
b110 L
0Q
b11 V
#1864000
0!
0#
08
#1868000
1!
1#
18
b101 L
b10 V
#1872000
0!
0#
08
#1876000
1!
1#
18
b100 L
b1 V
#1880000
0!
0#
08
#1884000
1!
1#
18
b11 L
b0 V
#1888000
0!
0#
08
#1892000
1!
1#
18
b10 L
b1010010001111101111111111000000 U
b111 V
b101 W
#1896000
0!
0#
08
#1900000
1!
1#
18
b1 L
b110 V
#1904000
0!
0#
08
#1908000
1!
1#
18
b0 L
b101 V
#1912000
0!
0#
08
#1916000
1!
1#
18
b1101 K
b111 L
b100 M
b100 V
#1920000
0!
0#
08
#1924000
1!
1#
18
b110 L
b11 V
#1928000
0!
0#
08
#1932000
1!
1#
18
b101 L
b10 V
#1936000
0!
0#
08
#1940000
1!
1#
18
b100 L
b1 V
#1944000
0!
0#
08
#1948000
1!
1#
18
b11 L
b0 V
#1952000
0!
0#
08
#1956000
1!
1#
18
b10 L
b101001000111110111111111100000 U
b111 V
b100 W
#1960000
0!
0#
08
#1964000
1!
1#
18
b1 L
b110 V
#1968000
0!
0#
08
#1972000
1!
1#
18
b0 L
b101 V
#1976000
0!
0#
08
#1980000
1!
1#
11
18
1@
1A
1I
b110 K
b111 L
b11 M
b100 V
#1984000
0!
0#
08
#1988000
1!
1#
18
b110 L
1Q
b11 V
#1992000
0!
0#
08
#1996000
1!
1#
18
b101 L
b10 V
#2000000
0!
0#
08
#2004000
1!
1#
18
b100 L
b1 V
#2008000
0!
0#
08
#2012000
1!
1#
18
b11 L
b0 V
#2016000
0!
0#
08
#2020000
1!
1#
18
b10 L
b10010100100011111011111111110000 U
b111 V
b11 W
#2024000
0!
0#
08
#2028000
1!
1#
18
b1 L
b110 V
#2032000
0!
0#
08
#2036000
1!
1#
18
b0 L
b101 V
#2040000
0!
0#
08
#2044000
1!
1#
01
18
0@
0A
0I
b11 K
b111 L
b10 M
b100 V
#2048000
0!
0#
08
#2052000
1!
1#
18
b110 L
0Q
b11 V
#2056000
0!
0#
08
#2060000
1!
1#
18
b101 L
b10 V
#2064000
0!
0#
08
#2068000
1!
1#
18
b100 L
b1 V
#2072000
0!
0#
08
#2076000
1!
1#
18
b11 L
b0 V
#2080000
0!
0#
08
#2084000
1!
1#
18
b10 L
b1001010010001111101111111111000 U
b111 V
b10 W
#2088000
0!
0#
08
#2092000
1!
1#
18
b1 L
b110 V
#2096000
0!
0#
08
#2100000
1!
1#
18
b0 L
b101 V
#2104000
0!
0#
08
#2108000
1!
1#
11
18
1@
1A
1I
b1 K
b111 L
b1 M
b100 V
#2112000
0!
0#
08
#2116000
1!
1#
18
b110 L
1Q
b11 V
#2120000
0!
0#
08
#2124000
1!
1#
18
b101 L
b10 V
#2128000
0!
0#
08
#2132000
1!
1#
18
b100 L
b1 V
#2136000
0!
0#
08
#2140000
1!
1#
18
b11 L
b0 V
#2144000
0!
0#
08
#2148000
1!
1#
18
b10 L
b10100101001000111110111111111100 U
b111 V
b1 W
#2152000
0!
0#
08
#2156000
1!
1#
18
b1 L
b110 V
#2160000
0!
0#
08
#2164000
1!
1#
18
b0 L
b101 V
#2168000
0!
0#
08
#2172000
1!
1#
18
b1000 L
b0 M
b100 V
#2176000
0!
0#
08
#2180000
1!
1#
18
b111 L
b11 V
#2184000
0!
0#
08
#2188000
1!
1#
18
b110 L
b10 V
#2192000
0!
0#
08
#2196000
1!
1#
18
b101 L
b1 V
#2200000
0!
0#
08
#2204000
1!
1#
18
b100 L
b0 V
#2208000
0!
0#
08
#2212000
1!
1#
b10100101001000111110111111111100 -
1.
18
b10100101001000111110111111111100 =
1>
b11 L
b10100101001000111110111111111100 O
1P
b0 W
#2216000
0!
0#
08
#2220000
1!
1#
1/
03
18
1?
0C
b10 L
0R
#2224000
0!
0#
08
#2228000
1!
1#
0.
0/
18
0>
0?
b1 L
0P
#2232000
0!
0#
08
#2236000
1!
1#
18
b0 L
#2240000
0!
0#
08
#2244000
1!
1#
1'
02
18
1<
0B
1H
0J
#2248000
0!
0#
08
#2252000
1!
1#
18
#2256000
0!
0#
08
#2260000
1!
1#
18
#2264000
0!
0#
08
#2268000
1!
1#
18
#2272000
0!
0#
08
#2276000
1!
1#
18
#2280000
0!
0#
08
#2284000
1!
1#
18
#2288000
0!
0#
08
#2292000
1!
1#
b11001110011100110111001000011000 %
1&
b100010 (
1)
b1 *
b101 +
b1111 ,
18
b11001110011100110111001000011000 :
1;
#2296000
0!
0#
08
#2300000
1!
1#
b0 %
0&
0'
b0 (
0)
b0 *
b0 +
b0 ,
01
12
18
b0 :
0;
0<
0@
0A
1B
0H
0I
1J
b111001110011100110111001000011000 K
b111 L
b100001 M
#2304000
0!
0#
08
#2308000
1!
1#
18
b110 L
0Q
#2312000
0!
0#
08
#2316000
1!
1#
13
18
1C
b101 L
1R
b0 U
b10 V
b100010 W
#2320000
0!
0#
08
#2324000
1!
1#
18
b100 L
b1 V
#2328000
0!
0#
08
#2332000
1!
1#
18
b11 L
b0 V
#2336000
0!
0#
08
#2340000
1!
1#
18
b10 L
b111 V
b100001 W
#2344000
0!
0#
08
#2348000
1!
1#
18
b1 L
b110 V
#2352000
0!
0#
08
#2356000
1!
1#
18
b0 L
b101 V
#2360000
0!
0#
08
#2364000
1!
1#
18
b11100111001110011011100100001100 K
b111 L
b100000 M
b100 V
#2368000
0!
0#
08
#2372000
1!
1#
18
b110 L
b11 V
#2376000
0!
0#
08
#2380000
1!
1#
18
b101 L
b10 V
#2384000
0!
0#
08
#2388000
1!
1#
18
b100 L
b1 V
#2392000
0!
0#
08
#2396000
1!
1#
18
b11 L
b0 V
#2400000
0!
0#
08
#2404000
1!
1#
18
b10 L
b111 V
b100000 W
#2408000
0!
0#
08
#2412000
1!
1#
18
b1 L
b110 V
#2416000
0!
0#
08
#2420000
1!
1#
18
b0 L
b101 V
#2424000
0!
0#
08
#2428000
1!
1#
18
b1110011100111001101110010000110 K
b111 L
b11111 M
b100 V
#2432000
0!
0#
08
#2436000
1!
1#
18
b110 L
b11 V
#2440000
0!
0#
08
#2444000
1!
1#
18
b101 L
b10 V
#2448000
0!
0#
08
#2452000
1!
1#
18
b100 L
b1 V
#2456000
0!
0#
08
#2460000
1!
1#
18
b11 L
b0 V
#2464000
0!
0#
08
#2468000
1!
1#
18
b10 L
b111 V
b11111 W
#2472000
0!
0#
08
#2476000
1!
1#
18
b1 L
b110 V
#2480000
0!
0#
08
#2484000
1!
1#
18
b0 L
b101 V
#2488000
0!
0#
08
#2492000
1!
1#
18
b111001110011100110111001000011 K
b111 L
b11110 M
b100 V
#2496000
0!
0#
08
#2500000
1!
1#
18
b110 L
b11 V
#2504000
0!
0#
08
#2508000
1!
1#
18
b101 L
b10 V
#2512000
0!
0#
08
#2516000
1!
1#
18
b100 L
b1 V
#2520000
0!
0#
08
#2524000
1!
1#
18
b11 L
b0 V
#2528000
0!
0#
08
#2532000
1!
1#
18
b10 L
b111 V
b11110 W
#2536000
0!
0#
08
#2540000
1!
1#
18
b1 L
b110 V
#2544000
0!
0#
08
#2548000
1!
1#
18
b0 L
b101 V
#2552000
0!
0#
08
#2556000
1!
1#
11
18
1@
1A
1I
b11100111001110011011100100001 K
b111 L
b11101 M
b100 V
#2560000
0!
0#
08
#2564000
1!
1#
18
b110 L
1Q
b11 V
#2568000
0!
0#
08
#2572000
1!
1#
18
b101 L
b10 V
#2576000
0!
0#
08
#2580000
1!
1#
18
b100 L
b1 V
#2584000
0!
0#
08
#2588000
1!
1#
18
b11 L
b0 V
#2592000
0!
0#
08
#2596000
1!
1#
18
b10 L
b10000000000000000000000000000000 U
b111 V
b11101 W
