sim/uart_axi4_stream.vcd
$date
   Tue Sep 28 19:24:13 2021
$end
$version
  2020.2
$end
$timescale
  1ps
$end
$scope module top $end
$var reg 1 ! clk $end
$var reg 1 " rst $end
$scope module inf $end
$var wire 1 # clk $end
$var wire 1 $ rst $end
$var reg 32 % s_axis_tdata [31:0] $end
$var reg 1 & s_axis_tvalid $end
$var reg 1 ' s_axis_tready $end
$var reg 8 ( tid [7:0] $end
$var reg 1 ) tlast $end
$var reg 4 * tdest [3:0] $end
$var reg 4 + tstrb [3:0] $end
$var reg 4 , tkeep [3:0] $end
$var reg 32 - m_axis_tdata [31:0] $end
$var reg 1 . m_axis_tvalid $end
$var reg 1 / m_axis_tready $end
$var parameter 32 0 DATA_WIDTH [31:0] $end
$upscope $end
$upscope $end
$enddefinitions $end
#0
$dumpvars
0!
1"
0#
1$
bx %
x&
x'
bx (
x)
bx *
bx +
bx ,
bx -
x.
x/
b100000 0
$end
#4000
1!
1#
b0 %
0&
1'
b0 (
0)
b0 *
b0 +
b0 ,
b0 -
0.
1/
#8000
0!
0#
#11000
0"
0$
#12000
1!
1#
#16000
0!
0#
#20000
1!
1#
#24000
0!
0#
#28000
1!
1#
#32000
0!
0#
#36000
1!
1#
#40000
0!
0#
#44000
1!
1#
#48000
0!
0#
#52000
1!
1#
#56000
0!
0#
#60000
1!
1#
#64000
0!
0#
#68000
1!
1#
#72000
0!
0#
#76000
1!
1#
#80000
0!
0#
#84000
1!
1#
#88000
0!
0#
#92000
1!
1#
#96000
0!
0#
#100000
1!
1#
#104000
0!
0#
#108000
1!
1#
#112000
0!
0#
#116000
1!
1#
#120000
0!
0#
#124000
1!
1#
#128000
0!
0#
#132000
1!
1#
#136000
0!
0#
#140000
1!
1#
#144000
0!
0#
#148000
1!
1#
#152000
0!
0#
#156000
1!
1#
b11101001100010100110000000101100 %
1&
b1111111 (
b1010 *
b110 +
b1111 ,
b11101001100010100110000000101100 -
1.
#160000
0!
0#
#164000
1!
1#
b0 %
0&
0'
b0 (
b0 *
b0 +
b0 ,
b0 -
0.
0/
#168000
0!
0#
#172000
1!
1#
1'
1/
#176000
0!
0#
#180000
1!
1#
#184000
0!
0#
#188000
1!
1#
#192000
0!
0#
#196000
1!
1#
#200000
0!
0#
#204000
1!
1#
#208000
0!
0#
#212000
1!
1#
#216000
0!
0#
#220000
1!
1#
#224000
0!
0#
#228000
1!
1#
#232000
0!
0#
#236000
1!
1#
#240000
0!
0#
#244000
1!
1#
#248000
0!
0#
#252000
1!
1#
#256000
0!
0#
#260000
1!
1#
#264000
0!
0#
#268000
1!
1#
#272000
0!
0#
#276000
1!
1#
#280000
0!
0#
#284000
1!
1#
#288000
0!
0#
#292000
1!
1#
#296000
0!
0#
#300000
1!
1#
#304000
0!
0#
#308000
1!
1#
#312000
0!
0#
#316000
1!
1#
b11110000111100000110100001010111 %
1&
b1111111 (
b1010 *
b1110 +
b1111 ,
b11110000111100000110100001010111 -
1.
#320000
0!
0#
#324000
1!
1#
b0 %
0&
0'
b0 (
b0 *
b0 +
b0 ,
b0 -
0.
0/
#328000
0!
0#
#332000
1!
1#
1'
1/
#336000
0!
0#
#340000
1!
1#
#344000
0!
0#
#348000
1!
1#
#352000
0!
0#
#356000
1!
1#
#360000
0!
0#
#364000
1!
1#
#368000
0!
0#
#372000
1!
1#
#376000
0!
0#
#380000
1!
1#
#384000
0!
0#
#388000
1!
1#
#392000
0!
0#
#396000
1!
1#
#400000
0!
0#
#404000
1!
1#
#408000
0!
0#
#412000
1!
1#
#416000
0!
0#
#420000
1!
1#
#424000
0!
0#
#428000
1!
1#
#432000
0!
0#
#436000
1!
1#
#440000
0!
0#
#444000
1!
1#
#448000
0!
0#
#452000
1!
1#
#456000
0!
0#
#460000
1!
1#
#464000
0!
0#
#468000
1!
1#
#472000
0!
0#
#476000
1!
1#
b11110111000000110101010001111011 %
1&
b1111111 (
b1010 *
b1110 +
b1111 ,
b11110111000000110101010001111011 -
1.
#480000
0!
0#
#484000
1!
1#
b0 %
0&
0'
b0 (
b0 *
b0 +
b0 ,
b0 -
0.
0/
#488000
0!
0#
#492000
1!
1#
1'
1/
#496000
0!
0#
#500000
1!
1#
#504000
0!
0#
#508000
1!
1#
#512000
0!
0#
#516000
1!
1#
#520000
0!
0#
#524000
1!
1#
#528000
0!
0#
#532000
1!
1#
#536000
0!
0#
#540000
1!
1#
#544000
0!
0#
#548000
1!
1#
#552000
0!
0#
#556000
1!
1#
#560000
0!
0#
#564000
1!
1#
#568000
0!
0#
#572000
1!
1#
#576000
0!
0#
#580000
1!
1#
#584000
0!
0#
#588000
1!
1#
#592000
0!
0#
#596000
1!
1#
#600000
0!
0#
#604000
1!
1#
#608000
0!
0#
#612000
1!
1#
#616000
0!
0#
#620000
1!
1#
#624000
0!
0#
#628000
1!
1#
#632000
0!
0#
#636000
1!
1#
b11001011001101100110110101001000 %
1&
b1111111 (
1)
b1010 *
b10 +
b1111 ,
b11001011001101100110110101001000 -
1.
#640000
0!
0#
#644000
1!
1#
b0 %
0&
0'
b0 (
0)
b0 *
b0 +
b0 ,
b0 -
0.
0/
#648000
0!
0#
#652000
1!
1#
1'
1/
#656000
0!
0#
#660000
1!
1#
#664000
0!
0#
#668000
1!
1#
#672000
0!
0#
#676000
1!
1#
#680000
0!
0#
#684000
1!
1#
#688000
0!
0#
#692000
1!
1#
#696000
0!
0#
#700000
1!
1#
#704000
0!
0#
#708000
1!
1#
#712000
0!
0#
#716000
1!
1#
#720000
0!
0#
#724000
1!
1#
#728000
0!
0#
#732000
1!
1#
#736000
0!
0#
#740000
1!
1#
#744000
0!
0#
#748000
1!
1#
#752000
0!
0#
#756000
1!
1#
#760000
0!
0#
#764000
1!
1#
#768000
0!
0#
#772000
1!
1#
#776000
0!
0#
#780000
1!
1#
#784000
0!
0#
#788000
1!
1#
b11111110110110001101110101000001 %
1&
b1101000 (
b1101 *
b11 +
b1111 ,
b11111110110110001101110101000001 -
1.
#792000
0!
0#
#796000
1!
1#
b0 %
0&
0'
b0 (
b0 *
b0 +
b0 ,
b0 -
0.
0/
#800000
0!
0#
#804000
1!
1#
1'
1/
#808000
0!
0#
#812000
1!
1#
#816000
0!
0#
#820000
1!
1#
#824000
0!
0#
#828000
1!
1#
#832000
0!
0#
#836000
1!
1#
#840000
0!
0#
#844000
1!
1#
#848000
0!
0#
#852000
1!
1#
#856000
0!
0#
#860000
1!
1#
#864000
0!
0#
#868000
1!
1#
#872000
0!
0#
#876000
1!
1#
#880000
0!
0#
#884000
1!
1#
#888000
0!
0#
#892000
1!
1#
#896000
0!
0#
#900000
1!
1#
#904000
0!
0#
#908000
1!
1#
#912000
0!
0#
#916000
1!
1#
#920000
0!
0#
#924000
1!
1#
#928000
0!
0#
#932000
1!
1#
#936000
0!
0#
#940000
1!
1#
b110101101100111111111000010 %
1&
b1101000 (
b1101 *
b1 +
b1111 ,
b110101101100111111111000010 -
1.
#944000
0!
0#
#948000
1!
1#
b0 %
0&
0'
b0 (
b0 *
b0 +
b0 ,
b0 -
0.
0/
#952000
0!
0#
#956000
1!
1#
1'
1/
#960000
0!
0#
#964000
1!
1#
#968000
0!
0#
#972000
1!
1#
#976000
0!
0#
#980000
1!
1#
#984000
0!
0#
#988000
1!
1#
#992000
0!
0#
#996000
1!
1#
#1000000
0!
0#
#1004000
1!
1#
#1008000
0!
0#
#1012000
1!
1#
#1016000
0!
0#
#1020000
1!
1#
#1024000
0!
0#
#1028000
1!
1#
#1032000
0!
0#
#1036000
1!
1#
#1040000
0!
0#
#1044000
1!
1#
#1048000
0!
0#
#1052000
1!
1#
#1056000
0!
0#
#1060000
1!
1#
#1064000
0!
0#
#1068000
1!
1#
#1072000
0!
0#
#1076000
1!
1#
#1080000
0!
0#
#1084000
1!
1#
#1088000
0!
0#
#1092000
1!
1#
b11010100101001101001011010001110 %
1&
b1101000 (
b1101 *
b110 +
b1111 ,
b11010100101001101001011010001110 -
1.
#1096000
0!
0#
#1100000
1!
1#
b0 %
0&
0'
b0 (
b0 *
b0 +
b0 ,
b0 -
0.
0/
#1104000
0!
0#
#1108000
1!
1#
1'
1/
#1112000
0!
0#
#1116000
1!
1#
#1120000
0!
0#
#1124000
1!
1#
#1128000
0!
0#
#1132000
1!
1#
#1136000
0!
0#
#1140000
1!
1#
#1144000
0!
0#
#1148000
1!
1#
#1152000
0!
0#
#1156000
1!
1#
#1160000
0!
0#
#1164000
1!
1#
#1168000
0!
0#
#1172000
1!
1#
#1176000
0!
0#
#1180000
1!
1#
#1184000
0!
0#
#1188000
1!
1#
#1192000
0!
0#
#1196000
1!
1#
#1200000
0!
0#
#1204000
1!
1#
#1208000
0!
0#
#1212000
1!
1#
#1216000
0!
0#
#1220000
1!
1#
#1224000
0!
0#
#1228000
1!
1#
#1232000
0!
0#
#1236000
1!
1#
#1240000
0!
0#
#1244000
1!
1#
b11110000111011001010100110110101 %
1&
b1101000 (
b1101 *
b101 +
b1111 ,
b11110000111011001010100110110101 -
1.
#1248000
0!
0#
#1252000
1!
1#
b0 %
0&
0'
b0 (
b0 *
b0 +
b0 ,
b0 -
0.
0/
#1256000
0!
0#
#1260000
1!
1#
1'
1/
#1264000
0!
0#
#1268000
1!
1#
#1272000
0!
0#
#1276000
1!
1#
#1280000
0!
0#
#1284000
1!
1#
#1288000
0!
0#
#1292000
1!
1#
#1296000
0!
0#
#1300000
1!
1#
#1304000
0!
0#
#1308000
1!
1#
#1312000
0!
0#
#1316000
1!
1#
#1320000
0!
0#
#1324000
1!
1#
#1328000
0!
0#
#1332000
1!
1#
#1336000
0!
0#
#1340000
1!
1#
#1344000
0!
0#
#1348000
1!
1#
#1352000
0!
0#
#1356000
1!
1#
#1360000
0!
0#
#1364000
1!
1#
#1368000
0!
0#
#1372000
1!
1#
#1376000
0!
0#
#1380000
1!
1#
#1384000
0!
0#
#1388000
1!
1#
#1392000
0!
0#
#1396000
1!
1#
b11001000100010010101101000000101 %
1&
b1101000 (
1)
b1101 *
b1111 +
b1111 ,
b11001000100010010101101000000101 -
1.
#1400000
0!
0#
#1404000
1!
1#
b0 %
0&
0'
b0 (
0)
b0 *
b0 +
b0 ,
b0 -
0.
0/
#1408000
0!
0#
#1412000
1!
1#
1'
1/
#1416000
0!
0#
#1420000
1!
1#
#1424000
0!
0#
#1428000
1!
1#
#1432000
0!
0#
#1436000
1!
1#
#1440000
0!
0#
#1444000
1!
1#
#1448000
0!
0#
#1452000
1!
1#
#1456000
0!
0#
#1460000
1!
1#
#1464000
0!
0#
#1468000
1!
1#
#1472000
0!
0#
#1476000
1!
1#
#1480000
0!
0#
#1484000
1!
1#
#1488000
0!
0#
#1492000
1!
1#
b11100011101010111011010111101000 %
1&
b1111011 (
b1001 *
b1011 +
b1111 ,
b11100011101010111011010111101000 -
1.
#1496000
0!
0#
#1500000
1!
1#
b0 %
0&
0'
b0 (
b0 *
b0 +
b0 ,
b0 -
0.
0/
#1504000
0!
0#
#1508000
1!
1#
1'
1/
#1512000
0!
0#
#1516000
1!
1#
#1520000
0!
0#
#1524000
1!
1#
#1528000
0!
0#
#1532000
1!
1#
#1536000
0!
0#
#1540000
1!
1#
#1544000
0!
0#
#1548000
1!
1#
#1552000
0!
0#
#1556000
1!
1#
#1560000
0!
0#
#1564000
1!
1#
#1568000
0!
0#
#1572000
1!
1#
#1576000
0!
0#
#1580000
1!
1#
#1584000
0!
0#
#1588000
1!
1#
b11001001110010100000000101101011 %
1&
b1111011 (
b1001 *
b11 +
b1111 ,
b11001001110010100000000101101011 -
1.
#1592000
0!
0#
#1596000
1!
1#
b0 %
0&
0'
b0 (
b0 *
b0 +
b0 ,
b0 -
0.
0/
#1600000
0!
0#
#1604000
1!
1#
1'
1/
#1608000
0!
0#
#1612000
1!
1#
#1616000
0!
0#
#1620000
1!
1#
#1624000
0!
0#
#1628000
1!
1#
#1632000
0!
0#
#1636000
1!
1#
#1640000
0!
0#
#1644000
1!
1#
#1648000
0!
0#
#1652000
1!
1#
#1656000
0!
0#
#1660000
1!
1#
#1664000
0!
0#
#1668000
1!
1#
#1672000
0!
0#
#1676000
1!
1#
#1680000
0!
0#
#1684000
1!
1#
b10111100000000000001011011101001 %
1&
b1111011 (
b1001 *
b11 +
b1111 ,
b10111100000000000001011011101001 -
1.
#1688000
0!
0#
#1692000
1!
1#
b0 %
0&
0'
b0 (
b0 *
b0 +
b0 ,
b0 -
0.
0/
#1696000
0!
0#
#1700000
1!
1#
1'
1/
#1704000
0!
0#
#1708000
1!
1#
#1712000
0!
0#
#1716000
1!
1#
#1720000
0!
0#
#1724000
1!
1#
#1728000
0!
0#
#1732000
1!
1#
#1736000
0!
0#
#1740000
1!
1#
#1744000
0!
0#
#1748000
1!
1#
#1752000
0!
0#
#1756000
1!
1#
#1760000
0!
0#
#1764000
1!
1#
#1768000
0!
0#
#1772000
1!
1#
#1776000
0!
0#
#1780000
1!
1#
b11101011111011101100001011110100 %
1&
b1111011 (
b1001 *
b1111 +
b1111 ,
b11101011111011101100001011110100 -
1.
#1784000
0!
0#
#1788000
1!
1#
b0 %
0&
0'
b0 (
b0 *
b0 +
b0 ,
b0 -
0.
0/
#1792000
0!
0#
#1796000
1!
1#
1'
1/
#1800000
0!
0#
#1804000
1!
1#
#1808000
0!
0#
#1812000
1!
1#
#1816000
0!
0#
#1820000
1!
1#
#1824000
0!
0#
#1828000
1!
1#
#1832000
0!
0#
#1836000
1!
1#
#1840000
0!
0#
#1844000
1!
1#
#1848000
0!
0#
#1852000
1!
1#
#1856000
0!
0#
#1860000
1!
1#
#1864000
0!
0#
#1868000
1!
1#
#1872000
0!
0#
#1876000
1!
1#
b11000001110100101100000110000010 %
1&
b1111011 (
b1001 *
b110 +
b1111 ,
b11000001110100101100000110000010 -
1.
#1880000
0!
0#
#1884000
1!
1#
b0 %
0&
0'
b0 (
b0 *
b0 +
b0 ,
b0 -
0.
0/
#1888000
0!
0#
#1892000
1!
1#
1'
1/
#1896000
0!
0#
#1900000
1!
1#
#1904000
0!
0#
#1908000
1!
1#
#1912000
0!
0#
#1916000
1!
1#
#1920000
0!
0#
#1924000
1!
1#
#1928000
0!
0#
#1932000
1!
1#
#1936000
0!
0#
#1940000
1!
1#
#1944000
0!
0#
#1948000
1!
1#
#1952000
0!
0#
#1956000
1!
1#
#1960000
0!
0#
#1964000
1!
1#
#1968000
0!
0#
#1972000
1!
1#
b11110110010111100101111111111000 %
1&
b1111011 (
b1001 *
b1100 +
b1111 ,
b11110110010111100101111111111000 -
1.
#1976000
0!
0#
#1980000
1!
1#
b0 %
0&
0'
b0 (
b0 *
b0 +
b0 ,
b0 -
0.
0/
#1984000
0!
0#
#1988000
1!
1#
1'
1/
#1992000
0!
0#
#1996000
1!
1#
#2000000
0!
0#
#2004000
1!
1#
#2008000
0!
0#
#2012000
1!
1#
#2016000
0!
0#
#2020000
1!
1#
#2024000
0!
0#
#2028000
1!
1#
#2032000
0!
0#
#2036000
1!
1#
#2040000
0!
0#
#2044000
1!
1#
#2048000
0!
0#
#2052000
1!
1#
#2056000
0!
0#
#2060000
1!
1#
#2064000
0!
0#
#2068000
1!
1#
b1111010010101100000001001010 %
1&
b1111011 (
1)
b1001 *
b1001 +
b1111 ,
b1111010010101100000001001010 -
1.
#2072000
0!
0#
#2076000
1!
1#
b0 %
0&
0'
b0 (
0)
b0 *
b0 +
b0 ,
b0 -
0.
0/
#2080000
0!
0#
#2084000
1!
1#
1'
1/
#2088000
0!
0#
#2092000
1!
1#
#2096000
0!
0#
#2100000
1!
1#
#2104000
0!
0#
#2108000
1!
1#
#2112000
0!
0#
#2116000
1!
1#
#2120000
0!
0#
#2124000
1!
1#
#2128000
0!
0#
#2132000
1!
1#
#2136000
0!
0#
#2140000
1!
1#
#2144000
0!
0#
#2148000
1!
1#
#2152000
0!
0#
#2156000
1!
1#
b11111001111100000001111111011001 %
1&
b1111110 (
b1011 *
b1100 +
b1111 ,
b11111001111100000001111111011001 -
1.
#2160000
0!
0#
#2164000
1!
1#
b0 %
0&
0'
b0 (
b0 *
b0 +
b0 ,
b0 -
0.
0/
#2168000
0!
0#
#2172000
1!
1#
1'
1/
#2176000
0!
0#
#2180000
1!
1#
#2184000
0!
0#
#2188000
1!
1#
#2192000
0!
0#
#2196000
1!
1#
#2200000
0!
0#
#2204000
1!
1#
#2208000
0!
0#
#2212000
1!
1#
#2216000
0!
0#
#2220000
1!
1#
#2224000
0!
0#
#2228000
1!
1#
#2232000
0!
0#
#2236000
1!
1#
#2240000
0!
0#
#2244000
1!
1#
b11011110110100000100001101010000 %
1&
b1111110 (
b1011 *
b101 +
b1111 ,
b11011110110100000100001101010000 -
1.
#2248000
0!
0#
#2252000
1!
1#
b0 %
0&
0'
b0 (
b0 *
b0 +
b0 ,
b0 -
0.
0/
#2256000
0!
0#
#2260000
1!
1#
1'
1/
#2264000
0!
0#
#2268000
1!
1#
#2272000
0!
0#
#2276000
1!
1#
#2280000
0!
0#
#2284000
1!
1#
#2288000
0!
0#
#2292000
1!
1#
#2296000
0!
0#
#2300000
1!
1#
#2304000
0!
0#
#2308000
1!
1#
#2312000
0!
0#
#2316000
1!
1#
#2320000
0!
0#
#2324000
1!
1#
#2328000
0!
0#
#2332000
1!
1#
b10001001010101101010011110100001 %
1&
b1111110 (
b1011 *
b1101 +
b1111 ,
b10001001010101101010011110100001 -
1.
#2336000
0!
0#
#2340000
1!
1#
b0 %
0&
0'
b0 (
b0 *
b0 +
b0 ,
b0 -
0.
0/
#2344000
0!
0#
#2348000
1!
1#
1'
1/
#2352000
0!
0#
#2356000
1!
1#
#2360000
0!
0#
#2364000
1!
1#
#2368000
0!
0#
#2372000
1!
1#
#2376000
0!
0#
#2380000
1!
1#
#2384000
0!
0#
#2388000
1!
1#
#2392000
0!
0#
#2396000
1!
1#
#2400000
0!
0#
#2404000
1!
1#
#2408000
0!
0#
#2412000
1!
1#
#2416000
0!
0#
#2420000
1!
1#
b111001001110110100000101001111 %
1&
b1111110 (
b1011 *
b1000 +
b1111 ,
b111001001110110100000101001111 -
1.
#2424000
0!
0#
#2428000
1!
1#
b0 %
0&
0'
b0 (
b0 *
b0 +
b0 ,
b0 -
0.
0/
#2432000
0!
0#
#2436000
1!
1#
1'
1/
#2440000
0!
0#
#2444000
1!
1#
#2448000
0!
0#
#2452000
1!
1#
#2456000
0!
0#
#2460000
1!
1#
#2464000
0!
0#
#2468000
1!
1#
#2472000
0!
0#
#2476000
1!
1#
#2480000
0!
0#
#2484000
1!
1#
#2488000
0!
0#
#2492000
1!
1#
#2496000
0!
0#
#2500000
1!
1#
#2504000
0!
0#
#2508000
1!
1#
b11001101111110111011101010000100 %
1&
b1111110 (
b1011 *
b11 +
b1111 ,
b11001101111110111011101010000100 -
1.
#2512000
0!
0#
#2516000
1!
1#
b0 %
0&
0'
b0 (
b0 *
b0 +
b0 ,
b0 -
0.
0/
#2520000
0!
0#
#2524000
1!
1#
1'
1/
#2528000
0!
0#
#2532000
1!
1#
#2536000
0!
0#
#2540000
1!
1#
#2544000
0!
0#
#2548000
1!
1#
#2552000
0!
0#
#2556000
1!
1#
#2560000
0!
0#
#2564000
1!
1#
#2568000
0!
0#
#2572000
1!
1#
#2576000
0!
0#
#2580000
1!
1#
#2584000
0!
0#
#2588000
1!
1#
#2592000
0!
0#
#2596000
1!
1#
b11001101000001100100011010010000 %
1&
b1111110 (
b1011 *
b1110 +
b1111 ,
b11001101000001100100011010010000 -
1.
#2600000
0!
0#
#2604000
1!
1#
b0 %
0&
0'
b0 (
b0 *
b0 +
b0 ,
b0 -
0.
0/
#2608000
0!
0#
#2612000
1!
1#
1'
1/
#2616000
0!
0#
#2620000
1!
1#
#2624000
0!
0#
#2628000
1!
1#
#2632000
0!
0#
#2636000
1!
1#
#2640000
0!
0#
#2644000
1!
1#
#2648000
0!
0#
#2652000
1!
1#
#2656000
0!
0#
#2660000
1!
1#
#2664000
0!
0#
#2668000
1!
1#
#2672000
0!
0#
#2676000
1!
1#
#2680000
0!
0#
#2684000
1!
1#
b10011110011111111001110110011011 %
1&
b1111110 (
b1011 *
b101 +
b1111 ,
b10011110011111111001110110011011 -
1.
#2688000
0!
0#
#2692000
1!
1#
b0 %
0&
0'
b0 (
b0 *
b0 +
b0 ,
b0 -
0.
0/
#2696000
0!
0#
#2700000
1!
1#
1'
1/
#2704000
0!
0#
#2708000
1!
1#
#2712000
0!
0#
#2716000
1!
1#
#2720000
0!
0#
#2724000
1!
1#
#2728000
0!
0#
#2732000
1!
1#
#2736000
0!
0#
#2740000
1!
1#
#2744000
0!
0#
#2748000
1!
1#
#2752000
0!
0#
#2756000
1!
1#
#2760000
0!
0#
#2764000
1!
1#
#2768000
0!
0#
#2772000
1!
1#
b11000111111010111101101001011101 %
1&
b1111110 (
b1011 *
b1111 +
b1111 ,
b11000111111010111101101001011101 -
1.
#2776000
0!
0#
#2780000
1!
1#
b0 %
0&
0'
b0 (
b0 *
b0 +
b0 ,
b0 -
0.
0/
#2784000
0!
0#
#2788000
1!
1#
1'
1/
#2792000
0!
0#
#2796000
1!
1#
#2800000
0!
0#
#2804000
1!
1#
#2808000
0!
0#
#2812000
1!
1#
#2816000
0!
0#
#2820000
1!
1#
#2824000
0!
0#
#2828000
1!
1#
#2832000
0!
0#
#2836000
1!
1#
#2840000
0!
0#
#2844000
1!
1#
#2848000
0!
0#
#2852000
1!
1#
#2856000
0!
0#
#2860000
1!
1#
b101011110101101000100111100001 %
1&
b1111110 (
b1011 *
b100 +
b1111 ,
b101011110101101000100111100001 -
1.
#2864000
0!
0#
#2868000
1!
1#
b0 %
0&
0'
b0 (
b0 *
b0 +
b0 ,
b0 -
0.
0/
#2872000
0!
0#
#2876000
1!
1#
1'
1/
#2880000
0!
0#
#2884000
1!
1#
#2888000
0!
0#
#2892000
1!
1#
#2896000
0!
0#
#2900000
1!
1#
#2904000
0!
0#
#2908000
1!
1#
#2912000
0!
0#
#2916000
1!
1#
#2920000
0!
0#
#2924000
1!
1#
#2928000
0!
0#
#2932000
1!
1#
#2936000
0!
0#
#2940000
1!
1#
#2944000
0!
0#
#2948000
1!
1#
b100111110101100100010100111101 %
1&
b1111110 (
1)
b1011 *
b10 +
b1111 ,
b100111110101100100010100111101 -
1.
#2952000
0!
0#
#2956000
1!
1#
b0 %
0&
0'
b0 (
0)
b0 *
b0 +
b0 ,
b0 -
0.
0/
#2960000
0!
0#
#2964000
1!
1#
1'
1/
#2968000
0!
0#
#2972000
1!
1#
#2976000
0!
0#
#2980000
1!
1#
#2984000
0!
0#
#2988000
1!
1#
#2992000
0!
0#
#2996000
1!
1#
#3000000
0!
0#
#3004000
1!
1#
#3008000
0!
0#
#3012000
1!
1#
#3016000
0!
0#
#3020000
1!
1#
#3024000
0!
0#
#3028000
1!
1#
#3032000
0!
0#
#3036000
1!
1#
#3040000
0!
0#
#3044000
1!
1#
b10111010100010110101100010111101 %
1&
b1011011 (
b1011 *
b1001 +
b1111 ,
b10111010100010110101100010111101 -
1.
#3048000
0!
0#
#3052000
1!
1#
b0 %
0&
0'
b0 (
b0 *
b0 +
b0 ,
b0 -
0.
0/
#3056000
0!
0#
#3060000
1!
1#
1'
1/
#3064000
0!
0#
#3068000
1!
1#
#3072000
0!
0#
#3076000
1!
1#
#3080000
0!
0#
#3084000
1!
1#
#3088000
0!
0#
#3092000
1!
1#
#3096000
0!
0#
#3100000
1!
1#
#3104000
0!
0#
#3108000
1!
1#
#3112000
0!
0#
#3116000
1!
1#
#3120000
0!
0#
#3124000
1!
1#
#3128000
0!
0#
#3132000
1!
1#
#3136000
0!
0#
#3140000
1!
1#
b10101001001101000100001001110111 %
1&
b1011011 (
b1011 *
b1001 +
b1111 ,
b10101001001101000100001001110111 -
1.
#3144000
0!
0#
#3148000
1!
1#
b0 %
0&
0'
b0 (
b0 *
b0 +
b0 ,
b0 -
0.
0/
#3152000
0!
0#
#3156000
1!
1#
1'
1/
#3160000
0!
0#
#3164000
1!
1#
#3168000
0!
0#
#3172000
1!
1#
#3176000
0!
0#
#3180000
1!
1#
#3184000
0!
0#
#3188000
1!
1#
#3192000
0!
0#
#3196000
1!
1#
#3200000
0!
0#
#3204000
1!
1#
#3208000
0!
0#
#3212000
1!
1#
#3216000
0!
0#
#3220000
1!
1#
#3224000
0!
0#
#3228000
1!
1#
#3232000
0!
0#
#3236000
1!
1#
b11101001110100101111010011100 %
1&
b1011011 (
1)
b1011 *
b1101 +
b1111 ,
b11101001110100101111010011100 -
1.
#3240000
0!
0#
#3244000
1!
1#
b0 %
0&
0'
b0 (
0)
b0 *
b0 +
b0 ,
b0 -
0.
0/
#3248000
0!
0#
#3252000
1!
1#
1'
1/
#3256000
0!
0#
#3260000
1!
1#
#3264000
0!
0#
#3268000
1!
1#
#3272000
0!
0#
#3276000
1!
1#
#3280000
0!
0#
#3284000
1!
1#
#3288000
0!
0#
#3292000
1!
1#
#3296000
0!
0#
#3300000
1!
1#
#3304000
0!
0#
#3308000
1!
1#
#3312000
0!
0#
#3316000
1!
1#
#3320000
0!
0#
#3324000
1!
1#
#3328000
0!
0#
#3332000
1!
1#
#3336000
0!
0#
#3340000
1!
1#
#3344000
0!
0#
#3348000
1!
1#
#3352000
0!
0#
#3356000
1!
1#
#3360000
0!
0#
#3364000
1!
1#
#3368000
0!
0#
#3372000
1!
1#
#3376000
0!
0#
#3380000
1!
1#
#3384000
0!
0#
#3388000
1!
1#
#3392000
0!
0#
#3396000
1!
1#
#3400000
0!
0#
#3404000
1!
1#
#3408000
0!
0#
#3412000
1!
1#
b11110100011101011100010110110111 %
1&
b101010 (
b1001 *
b1001 +
b1111 ,
b11110100011101011100010110110111 -
1.
#3416000
0!
0#
#3420000
1!
1#
b0 %
0&
0'
b0 (
b0 *
b0 +
b0 ,
b0 -
0.
0/
#3424000
0!
0#
#3428000
1!
1#
1'
1/
#3432000
0!
0#
#3436000
1!
1#
#3440000
0!
0#
#3444000
1!
1#
#3448000
0!
0#
#3452000
1!
1#
#3456000
0!
0#
#3460000
1!
1#
#3464000
0!
0#
#3468000
1!
1#
#3472000
0!
0#
#3476000
1!
1#
#3480000
0!
0#
#3484000
1!
1#
#3488000
0!
0#
#3492000
1!
1#
#3496000
0!
0#
#3500000
1!
1#
#3504000
0!
0#
#3508000
1!
1#
#3512000
0!
0#
#3516000
1!
1#
#3520000
0!
0#
#3524000
1!
1#
#3528000
0!
0#
#3532000
1!
1#
#3536000
0!
0#
#3540000
1!
1#
#3544000
0!
0#
#3548000
1!
1#
#3552000
0!
0#
#3556000
1!
1#
#3560000
0!
0#
#3564000
1!
1#
#3568000
0!
0#
#3572000
1!
1#
#3576000
0!
0#
#3580000
1!
1#
#3584000
0!
0#
#3588000
1!
1#
b11010011011110110001100011001011 %
1&
b101010 (
b1001 *
b110 +
b1111 ,
b11010011011110110001100011001011 -
1.
#3592000
0!
0#
#3596000
1!
1#
b0 %
0&
0'
b0 (
b0 *
b0 +
b0 ,
b0 -
0.
0/
#3600000
0!
0#
#3604000
1!
1#
1'
1/
#3608000
0!
0#
#3612000
1!
1#
#3616000
0!
0#
#3620000
1!
1#
#3624000
0!
0#
#3628000
1!
1#
#3632000
0!
0#
#3636000
1!
1#
#3640000
0!
0#
#3644000
1!
1#
#3648000
0!
0#
#3652000
1!
1#
#3656000
0!
0#
#3660000
1!
1#
#3664000
0!
0#
#3668000
1!
1#
#3672000
0!
0#
#3676000
1!
1#
#3680000
0!
0#
#3684000
1!
1#
#3688000
0!
0#
#3692000
1!
1#
#3696000
0!
0#
#3700000
1!
1#
#3704000
0!
0#
#3708000
1!
1#
#3712000
0!
0#
#3716000
1!
1#
#3720000
0!
0#
#3724000
1!
1#
#3728000
0!
0#
#3732000
1!
1#
#3736000
0!
0#
#3740000
1!
1#
#3744000
0!
0#
#3748000
1!
1#
#3752000
0!
0#
#3756000
1!
1#
#3760000
0!
0#
#3764000
1!
1#
b11110011011000010011100110001011 %
1&
b101010 (
b1001 *
b111 +
b1111 ,
b11110011011000010011100110001011 -
1.
#3768000
0!
0#
#3772000
1!
1#
b0 %
0&
0'
b0 (
b0 *
b0 +
b0 ,
b0 -
0.
0/
#3776000
0!
0#
#3780000
1!
1#
1'
1/
#3784000
0!
0#
#3788000
1!
1#
#3792000
0!
0#
#3796000
1!
1#
#3800000
0!
0#
#3804000
1!
1#
#3808000
0!
0#
#3812000
1!
1#
#3816000
0!
0#
#3820000
1!
1#
#3824000
0!
0#
#3828000
1!
1#
#3832000
0!
0#
#3836000
1!
1#
#3840000
0!
0#
#3844000
1!
1#
#3848000
0!
0#
#3852000
1!
1#
#3856000
0!
0#
#3860000
1!
1#
#3864000
0!
0#
#3868000
1!
1#
#3872000
0!
0#
#3876000
1!
1#
#3880000
0!
0#
#3884000
1!
1#
#3888000
0!
0#
#3892000
1!
1#
#3896000
0!
0#
#3900000
1!
1#
#3904000
0!
0#
#3908000
1!
1#
#3912000
0!
0#
#3916000
1!
1#
#3920000
0!
0#
#3924000
1!
1#
#3928000
0!
0#
#3932000
1!
1#
#3936000
0!
0#
#3940000
1!
1#
b11011100111010011101000011111011 %
1&
b101010 (
b1001 *
b1111 ,
b11011100111010011101000011111011 -
1.
#3944000
0!
0#
#3948000
1!
1#
b0 %
0&
0'
b0 (
b0 *
b0 ,
b0 -
0.
0/
#3952000
0!
0#
#3956000
1!
1#
1'
1/
#3960000
0!
0#
#3964000
1!
1#
#3968000
0!
0#
#3972000
1!
1#
#3976000
0!
0#
#3980000
1!
1#
#3984000
0!
0#
#3988000
1!
1#
#3992000
0!
0#
#3996000
1!
1#
#4000000
0!
0#
#4004000
1!
1#
#4008000
0!
0#
#4012000
1!
1#
#4016000
0!
0#
#4020000
1!
1#
#4024000
0!
0#
