sim/uart_axi4_stream.vcd
$date
   Wed Sep 29 15:59:02 2021
$end
$version
  2020.2
$end
$timescale
  1ps
$end
$scope module top $end
$var reg 1 ! clk $end
$var reg 1 " rst $end
$scope module inf $end
$var wire 1 # clk $end
$var wire 1 $ rst $end
$var reg 32 % s_axis_tdata [31:0] $end
$var reg 1 & s_axis_tvalid $end
$var reg 1 ' s_axis_tready $end
$var reg 8 ( tid [7:0] $end
$var reg 1 ) tlast $end
$var reg 4 * tdest [3:0] $end
$var reg 4 + tstrb [3:0] $end
$var reg 4 , tkeep [3:0] $end
$var reg 32 - m_axis_tdata [31:0] $end
$var reg 1 . m_axis_tvalid $end
$var reg 1 / m_axis_tready $end
$var parameter 32 0 DATA_WIDTH [31:0] $end
$upscope $end
$upscope $end
$enddefinitions $end
#0
$dumpvars
0!
1"
0#
1$
bx %
x&
x'
bx (
x)
bx *
bx +
bx ,
bx -
x.
x/
b100000 0
$end
#4000
1!
1#
b0 %
0&
0'
b0 (
0)
b0 *
b0 +
b0 ,
b0 -
0.
0/
#8000
0!
0#
#11000
0"
0$
#12000
1!
1#
#16000
0!
0#
#20000
1!
1#
#24000
0!
0#
#28000
1!
1#
#32000
0!
0#
#36000
1!
1#
#40000
0!
0#
#44000
1!
1#
#48000
0!
0#
#52000
1!
1#
#56000
0!
0#
#60000
1!
1#
#64000
0!
0#
#68000
1!
1#
#72000
0!
0#
#76000
1!
1#
#80000
0!
0#
#84000
1!
1#
#88000
0!
0#
#92000
1!
1#
#96000
0!
0#
#100000
1!
1#
#104000
0!
0#
#108000
1!
1#
#112000
0!
0#
#116000
1!
1#
#120000
0!
0#
#124000
1!
1#
b111101100100101000110000000000 %
1&
b1101001 (
b1100 *
b1110 +
b1111 ,
b111101100100101000110000000000 -
1.
#128000
0!
0#
#132000
1!
1#
#136000
0!
0#
#140000
1!
1#
#144000
0!
0#
#148000
1!
1#
#152000
0!
0#
#156000
1!
1#
#160000
0!
0#
#164000
1!
1#
1'
1/
#168000
0!
0#
#172000
1!
1#
b0 %
0&
0'
b0 (
b0 *
b0 +
b0 ,
b0 -
0.
0/
#176000
0!
0#
#180000
1!
1#
#184000
0!
0#
#188000
1!
1#
#192000
0!
0#
#196000
1!
1#
#200000
0!
0#
#204000
1!
1#
#208000
0!
0#
#212000
1!
1#
#216000
0!
0#
#220000
1!
1#
#224000
0!
0#
#228000
1!
1#
#232000
0!
0#
#236000
1!
1#
#240000
0!
0#
#244000
1!
1#
#248000
0!
0#
#252000
1!
1#
#256000
0!
0#
#260000
1!
1#
#264000
0!
0#
#268000
1!
1#
#272000
0!
0#
#276000
1!
1#
#280000
0!
0#
#284000
1!
1#
#288000
0!
0#
#292000
1!
1#
#296000
0!
0#
#300000
1!
1#
#304000
0!
0#
#308000
1!
1#
b10100011101001101001010101010111 %
1&
b1110 (
b1100 *
b1111 +
b1111 ,
b10100011101001101001010101010111 -
1.
#312000
0!
0#
#316000
1!
1#
#320000
0!
0#
#324000
1!
1#
1'
1/
#328000
0!
0#
#332000
1!
1#
b0 %
0&
0'
b0 (
b0 *
b0 +
b0 ,
b0 -
0.
0/
#336000
0!
0#
#340000
1!
1#
1'
1/
#344000
0!
0#
#348000
1!
1#
#352000
0!
0#
#356000
1!
1#
#360000
0!
0#
#364000
1!
1#
#368000
0!
0#
#372000
1!
1#
#376000
0!
0#
#380000
1!
1#
#384000
0!
0#
#388000
1!
1#
b111000000101110111100000000 %
1&
b1010001 (
b1010 *
b1010 +
b1111 ,
b111000000101110111100000000 -
1.
#392000
0!
0#
#396000
1!
1#
b0 %
0&
0'
b0 (
b0 *
b0 +
b0 ,
b0 -
0.
0/
#400000
0!
0#
#404000
1!
1#
1'
1/
#408000
0!
0#
#412000
1!
1#
#416000
0!
0#
#420000
1!
1#
#424000
0!
0#
#428000
1!
1#
#432000
0!
0#
#436000
1!
1#
#440000
0!
0#
#444000
1!
1#
#448000
0!
0#
#452000
1!
1#
#456000
0!
0#
#460000
1!
1#
b11101010011001011111011110010001 %
1&
b1100111 (
b1110 *
b1111 +
b1111 ,
b11101010011001011111011110010001 -
1.
#464000
0!
0#
#468000
1!
1#
b0 %
0&
0'
b0 (
b0 *
b0 +
b0 ,
b0 -
0.
0/
#472000
0!
0#
#476000
1!
1#
#480000
0!
0#
#484000
1!
1#
#488000
0!
0#
#492000
1!
1#
#496000
0!
0#
#500000
1!
1#
#504000
0!
0#
#508000
1!
1#
#512000
0!
0#
#516000
1!
1#
#520000
0!
0#
#524000
1!
1#
#528000
0!
0#
#532000
1!
1#
b11111001010000000100010010 %
1&
b1000 (
b1011 *
b101 +
b1111 ,
b11111001010000000100010010 -
1.
#536000
0!
0#
#540000
1!
1#
#544000
0!
0#
#548000
1!
1#
#552000
0!
0#
#556000
1!
1#
#560000
0!
0#
#564000
1!
1#
#568000
0!
0#
#572000
1!
1#
#576000
0!
0#
#580000
1!
1#
#584000
0!
0#
#588000
1!
1#
#592000
0!
0#
#596000
1!
1#
#600000
0!
0#
#604000
1!
1#
#608000
0!
0#
#612000
1!
1#
#616000
0!
0#
#620000
1!
1#
1'
1/
#624000
0!
0#
#628000
1!
1#
b0 %
0&
0'
b0 (
b0 *
b0 +
b0 ,
b0 -
0.
0/
#632000
0!
0#
#636000
1!
1#
#640000
0!
0#
#644000
1!
1#
#648000
0!
0#
#652000
1!
1#
#656000
0!
0#
#660000
1!
1#
#664000
0!
0#
#668000
1!
1#
#672000
0!
0#
#676000
1!
1#
#680000
0!
0#
#684000
1!
1#
#688000
0!
0#
#692000
1!
1#
#696000
0!
0#
#700000
1!
1#
#704000
0!
0#
#708000
1!
1#
#712000
0!
0#
#716000
1!
1#
#720000
0!
0#
#724000
1!
1#
b11001100010100111000000000 %
1&
b100110 (
b1111 *
b110 +
b1111 ,
b11001100010100111000000000 -
1.
#728000
0!
0#
#732000
1!
1#
#736000
0!
0#
#740000
1!
1#
#744000
0!
0#
#748000
1!
1#
#752000
0!
0#
#756000
1!
1#
#760000
0!
0#
#764000
1!
1#
#768000
0!
0#
#772000
1!
1#
#776000
0!
0#
#780000
1!
1#
#784000
0!
0#
#788000
1!
1#
#792000
0!
0#
#796000
1!
1#
#800000
0!
0#
#804000
1!
1#
1'
1/
#808000
0!
0#
#812000
1!
1#
b0 %
0&
0'
b0 (
b0 *
b0 +
b0 ,
b0 -
0.
0/
#816000
0!
0#
#820000
1!
1#
1'
1/
#824000
0!
0#
#828000
1!
1#
#832000
0!
0#
#836000
1!
1#
#840000
0!
0#
#844000
1!
1#
#848000
0!
0#
#852000
1!
1#
#856000
0!
0#
#860000
1!
1#
b11110001110000000100000000 %
1&
b1000010 (
b1010 *
b100 +
b1111 ,
b11110001110000000100000000 -
1.
#864000
0!
0#
#868000
1!
1#
b0 %
0&
0'
b0 (
b0 *
b0 +
b0 ,
b0 -
0.
0/
#872000
0!
0#
#876000
1!
1#
#880000
0!
0#
#884000
1!
1#
#888000
0!
0#
#892000
1!
1#
b11010011100000000101001111001111 %
1&
b11 (
b1100 *
b1111 +
b1111 ,
b11010011100000000101001111001111 -
1.
#896000
0!
0#
#900000
1!
1#
#904000
0!
0#
#908000
1!
1#
#912000
0!
0#
#916000
1!
1#
#920000
0!
0#
#924000
1!
1#
1'
1/
#928000
0!
0#
#932000
1!
1#
b0 %
0&
0'
b0 (
b0 *
b0 +
b0 ,
b0 -
0.
0/
#936000
0!
0#
#940000
1!
1#
1'
1/
#944000
0!
0#
#948000
1!
1#
#952000
0!
0#
#956000
1!
1#
#960000
0!
0#
#964000
1!
1#
#968000
0!
0#
#972000
1!
1#
#976000
0!
0#
#980000
1!
1#
#984000
0!
0#
#988000
1!
1#
#992000
0!
0#
#996000
1!
1#
#1000000
0!
0#
#1004000
1!
1#
b11001111000000101111001010110000 %
1&
b1111010 (
b1100 *
b1011 +
b1111 ,
b11001111000000101111001010110000 -
1.
#1008000
0!
0#
#1012000
1!
1#
b0 %
0&
0'
b0 (
b0 *
b0 +
b0 ,
b0 -
0.
0/
#1016000
0!
0#
#1020000
1!
1#
#1024000
0!
0#
#1028000
1!
1#
#1032000
0!
0#
#1036000
1!
1#
#1040000
0!
0#
#1044000
1!
1#
#1048000
0!
0#
#1052000
1!
1#
#1056000
0!
0#
#1060000
1!
1#
#1064000
0!
0#
#1068000
1!
1#
#1072000
0!
0#
#1076000
1!
1#
#1080000
0!
0#
#1084000
1!
1#
#1088000
0!
0#
#1092000
1!
1#
#1096000
0!
0#
#1100000
1!
1#
#1104000
0!
0#
#1108000
1!
1#
#1112000
0!
0#
#1116000
1!
1#
#1120000
0!
0#
#1124000
1!
1#
#1128000
0!
0#
#1132000
1!
1#
#1136000
0!
0#
#1140000
1!
1#
#1144000
0!
0#
#1148000
1!
1#
#1152000
0!
0#
#1156000
1!
1#
#1160000
0!
0#
#1164000
1!
1#
#1168000
0!
0#
#1172000
1!
1#
b111111010000110100101100 %
1&
b111100 (
b1000 *
b1111 +
b1111 ,
b111111010000110100101100 -
1.
#1176000
0!
0#
#1180000
1!
1#
#1184000
0!
0#
#1188000
1!
1#
#1192000
0!
0#
#1196000
1!
1#
1'
1/
#1200000
0!
0#
#1204000
1!
1#
b0 %
0&
0'
b0 (
b0 *
b0 +
b0 ,
b0 -
0.
0/
#1208000
0!
0#
#1212000
1!
1#
#1216000
0!
0#
#1220000
1!
1#
#1224000
0!
0#
#1228000
1!
1#
#1232000
0!
0#
#1236000
1!
1#
#1240000
0!
0#
#1244000
1!
1#
#1248000
0!
0#
#1252000
1!
1#
#1256000
0!
0#
#1260000
1!
1#
#1264000
0!
0#
#1268000
1!
1#
#1272000
0!
0#
#1276000
1!
1#
#1280000
0!
0#
#1284000
1!
1#
#1288000
0!
0#
#1292000
1!
1#
#1296000
0!
0#
#1300000
1!
1#
#1304000
0!
0#
#1308000
1!
1#
b11111010000000101101001101010100 %
1&
b1111111 (
b1010 *
b1011 +
b1111 ,
b11111010000000101101001101010100 -
1.
#1312000
0!
0#
#1316000
1!
1#
#1320000
0!
0#
#1324000
1!
1#
#1328000
0!
0#
#1332000
1!
1#
#1336000
0!
0#
#1340000
1!
1#
#1344000
0!
0#
#1348000
1!
1#
1'
1/
#1352000
0!
0#
#1356000
1!
1#
b0 %
0&
0'
b0 (
b0 *
b0 +
b0 ,
b0 -
0.
0/
#1360000
0!
0#
#1364000
1!
1#
1'
1/
#1368000
0!
0#
#1372000
1!
1#
#1376000
0!
0#
#1380000
1!
1#
#1384000
0!
0#
#1388000
1!
1#
#1392000
0!
0#
#1396000
1!
1#
#1400000
0!
0#
#1404000
1!
1#
#1408000
0!
0#
#1412000
1!
1#
#1416000
0!
0#
#1420000
1!
1#
#1424000
0!
0#
#1428000
1!
1#
#1432000
0!
0#
#1436000
1!
1#
#1440000
0!
0#
#1444000
1!
1#
#1448000
0!
0#
#1452000
1!
1#
#1456000
0!
0#
#1460000
1!
1#
#1464000
0!
0#
#1468000
1!
1#
#1472000
0!
0#
#1476000
1!
1#
#1480000
0!
0#
#1484000
1!
1#
#1488000
0!
0#
#1492000
1!
1#
#1496000
0!
0#
#1500000
1!
1#
#1504000
0!
0#
#1508000
1!
1#
#1512000
0!
0#
#1516000
1!
1#
#1520000
0!
0#
#1524000
1!
1#
b11100011110100010100000000 %
1&
b111000 (
b1111 *
b110 +
b1111 ,
b11100011110100010100000000 -
1.
#1528000
0!
0#
#1532000
1!
1#
b0 %
0&
0'
b0 (
b0 *
b0 +
b0 ,
b0 -
0.
0/
#1536000
0!
0#
#1540000
1!
1#
#1544000
0!
0#
#1548000
1!
1#
#1552000
0!
0#
#1556000
1!
1#
#1560000
0!
0#
#1564000
1!
1#
#1568000
0!
0#
#1572000
1!
1#
#1576000
0!
0#
#1580000
1!
1#
#1584000
0!
0#
#1588000
1!
1#
b10110000000000100000000110000011 %
1&
b1001101 (
b101 *
b1001 +
b1111 ,
b10110000000000100000000110000011 -
1.
#1592000
0!
0#
#1596000
1!
1#
1'
1/
#1600000
0!
0#
#1604000
1!
1#
b0 %
0&
0'
b0 (
b0 *
b0 +
b0 ,
b0 -
0.
0/
#1608000
0!
0#
#1612000
1!
1#
1'
1/
#1616000
0!
0#
#1620000
1!
1#
#1624000
0!
0#
#1628000
1!
1#
#1632000
0!
0#
#1636000
1!
1#
#1640000
0!
0#
#1644000
1!
1#
#1648000
0!
0#
#1652000
1!
1#
#1656000
0!
0#
#1660000
1!
1#
#1664000
0!
0#
#1668000
1!
1#
#1672000
0!
0#
#1676000
1!
1#
b11001110011011110010010100110010 %
1&
b110001 (
b1000 *
b1111 +
b1111 ,
b11001110011011110010010100110010 -
1.
#1680000
0!
0#
#1684000
1!
1#
b0 %
0&
0'
b0 (
b0 *
b0 +
b0 ,
b0 -
0.
0/
#1688000
0!
0#
#1692000
1!
1#
#1696000
0!
0#
#1700000
1!
1#
#1704000
0!
0#
#1708000
1!
1#
#1712000
0!
0#
#1716000
1!
1#
#1720000
0!
0#
#1724000
1!
1#
#1728000
0!
0#
#1732000
1!
1#
#1736000
0!
0#
#1740000
1!
1#
#1744000
0!
0#
#1748000
1!
1#
#1752000
0!
0#
#1756000
1!
1#
#1760000
0!
0#
#1764000
1!
1#
#1768000
0!
0#
#1772000
1!
1#
#1776000
0!
0#
#1780000
1!
1#
#1784000
0!
0#
#1788000
1!
1#
b10010101101111010100000000000011 %
1&
b111000 (
b1101 *
b1111 +
b1111 ,
b10010101101111010100000000000011 -
1.
#1792000
0!
0#
#1796000
1!
1#
1'
1/
#1800000
0!
0#
#1804000
1!
1#
b0 %
0&
0'
b0 (
b0 *
b0 +
b0 ,
b0 -
0.
0/
#1808000
0!
0#
#1812000
1!
1#
#1816000
0!
0#
#1820000
1!
1#
#1824000
0!
0#
#1828000
1!
1#
#1832000
0!
0#
#1836000
1!
1#
#1840000
0!
0#
#1844000
1!
1#
#1848000
0!
0#
#1852000
1!
1#
#1856000
0!
0#
#1860000
1!
1#
b11010001011001010111000110 %
1&
b1000000 (
b110 *
b111 +
b1111 ,
b11010001011001010111000110 -
1.
#1864000
0!
0#
#1868000
1!
1#
#1872000
0!
0#
#1876000
1!
1#
#1880000
0!
0#
#1884000
1!
1#
#1888000
0!
0#
#1892000
1!
1#
#1896000
0!
0#
#1900000
1!
1#
#1904000
0!
0#
#1908000
1!
1#
#1912000
0!
0#
#1916000
1!
1#
#1920000
0!
0#
#1924000
1!
1#
#1928000
0!
0#
#1932000
1!
1#
#1936000
0!
0#
#1940000
1!
1#
#1944000
0!
0#
#1948000
1!
1#
1'
1/
#1952000
0!
0#
#1956000
1!
1#
b0 %
0&
0'
b0 (
b0 *
b0 +
b0 ,
b0 -
0.
0/
#1960000
0!
0#
#1964000
1!
1#
1'
1/
#1968000
0!
0#
#1972000
1!
1#
#1976000
0!
0#
#1980000
1!
1#
#1984000
0!
0#
#1988000
1!
1#
#1992000
0!
0#
#1996000
1!
1#
#2000000
0!
0#
#2004000
1!
1#
#2008000
0!
0#
#2012000
1!
1#
#2016000
0!
0#
#2020000
1!
1#
#2024000
0!
0#
#2028000
1!
1#
#2032000
0!
0#
#2036000
1!
1#
#2040000
0!
0#
#2044000
1!
1#
#2048000
0!
0#
#2052000
1!
1#
#2056000
0!
0#
#2060000
1!
1#
b11000000101010101100000000 %
1&
b110100 (
b10 +
b1111 ,
b11000000101010101100000000 -
1.
#2064000
0!
0#
#2068000
1!
1#
b0 %
0&
0'
b0 (
b0 +
b0 ,
b0 -
0.
0/
