sim/uart_axi4_stream.vcd
$date
	Sun Apr 24 01:16:25 2022
$end
$version
	QuestaSim Version 2019.2_1
$end
$timescale
	1ps
$end

$scope module top $end
$var reg 1 ! clk $end
$var reg 1 " rst $end

$scope module UART_DUT $end
$var parameter 32 # DATA_WIDTH $end
$var wire 1 $ clk $end
$var wire 1 % rst $end
$var wire 1 & s_axis_tdata [15] $end
$var wire 1 ' s_axis_tdata [14] $end
$var wire 1 ( s_axis_tdata [13] $end
$var wire 1 ) s_axis_tdata [12] $end
$var wire 1 * s_axis_tdata [11] $end
$var wire 1 + s_axis_tdata [10] $end
$var wire 1 , s_axis_tdata [9] $end
$var wire 1 - s_axis_tdata [8] $end
$var wire 1 . s_axis_tdata [7] $end
$var wire 1 / s_axis_tdata [6] $end
$var wire 1 0 s_axis_tdata [5] $end
$var wire 1 1 s_axis_tdata [4] $end
$var wire 1 2 s_axis_tdata [3] $end
$var wire 1 3 s_axis_tdata [2] $end
$var wire 1 4 s_axis_tdata [1] $end
$var wire 1 5 s_axis_tdata [0] $end
$var wire 1 6 s_axis_tvalid $end
$var wire 1 7 s_axis_tready $end
$var wire 1 8 m_axis_tdata [15] $end
$var wire 1 9 m_axis_tdata [14] $end
$var wire 1 : m_axis_tdata [13] $end
$var wire 1 ; m_axis_tdata [12] $end
$var wire 1 < m_axis_tdata [11] $end
$var wire 1 = m_axis_tdata [10] $end
$var wire 1 > m_axis_tdata [9] $end
$var wire 1 ? m_axis_tdata [8] $end
$var wire 1 @ m_axis_tdata [7] $end
$var wire 1 A m_axis_tdata [6] $end
$var wire 1 B m_axis_tdata [5] $end
$var wire 1 C m_axis_tdata [4] $end
$var wire 1 D m_axis_tdata [3] $end
$var wire 1 E m_axis_tdata [2] $end
$var wire 1 F m_axis_tdata [1] $end
$var wire 1 G m_axis_tdata [0] $end
$var wire 1 H m_axis_tvalid $end
$var wire 1 I m_axis_tready $end
$var wire 1 J rxd $end
$var wire 1 K txd $end
$var wire 1 L tx_busy $end
$var wire 1 M rx_busy $end
$var wire 1 N rx_overrun_error $end
$var wire 1 O rx_frame_error $end
$var wire 1 P prescale [15] $end
$var wire 1 Q prescale [14] $end
$var wire 1 R prescale [13] $end
$var wire 1 S prescale [12] $end
$var wire 1 T prescale [11] $end
$var wire 1 U prescale [10] $end
$var wire 1 V prescale [9] $end
$var wire 1 W prescale [8] $end
$var wire 1 X prescale [7] $end
$var wire 1 Y prescale [6] $end
$var wire 1 Z prescale [5] $end
$var wire 1 [ prescale [4] $end
$var wire 1 \ prescale [3] $end
$var wire 1 ] prescale [2] $end
$var wire 1 ^ prescale [1] $end
$var wire 1 _ prescale [0] $end

$scope module uart_tx_inst $end
$var parameter 32 ` DATA_WIDTH $end
$var wire 1 $ clk $end
$var wire 1 % rst $end
$var wire 1 & s_axis_tdata [15] $end
$var wire 1 ' s_axis_tdata [14] $end
$var wire 1 ( s_axis_tdata [13] $end
$var wire 1 ) s_axis_tdata [12] $end
$var wire 1 * s_axis_tdata [11] $end
$var wire 1 + s_axis_tdata [10] $end
$var wire 1 , s_axis_tdata [9] $end
$var wire 1 - s_axis_tdata [8] $end
$var wire 1 . s_axis_tdata [7] $end
$var wire 1 / s_axis_tdata [6] $end
$var wire 1 0 s_axis_tdata [5] $end
$var wire 1 1 s_axis_tdata [4] $end
$var wire 1 2 s_axis_tdata [3] $end
$var wire 1 3 s_axis_tdata [2] $end
$var wire 1 4 s_axis_tdata [1] $end
$var wire 1 5 s_axis_tdata [0] $end
$var wire 1 6 s_axis_tvalid $end
$var wire 1 7 s_axis_tready $end
$var wire 1 K txd $end
$var wire 1 L busy $end
$var wire 1 P prescale [15] $end
$var wire 1 Q prescale [14] $end
$var wire 1 R prescale [13] $end
$var wire 1 S prescale [12] $end
$var wire 1 T prescale [11] $end
$var wire 1 U prescale [10] $end
$var wire 1 V prescale [9] $end
$var wire 1 W prescale [8] $end
$var wire 1 X prescale [7] $end
$var wire 1 Y prescale [6] $end
$var wire 1 Z prescale [5] $end
$var wire 1 [ prescale [4] $end
$var wire 1 \ prescale [3] $end
$var wire 1 ] prescale [2] $end
$var wire 1 ^ prescale [1] $end
$var wire 1 _ prescale [0] $end
$var reg 1 a s_axis_tready_reg $end
$var reg 1 b txd_reg $end
$var reg 1 c busy_reg $end
$var reg 17 d data_reg [16:0] $end
$var reg 19 e prescale_reg [18:0] $end
$var reg 5 f bit_cnt [4:0] $end
$upscope $end

$scope module uart_rx_inst $end
$var parameter 32 g DATA_WIDTH $end
$var wire 1 $ clk $end
$var wire 1 % rst $end
$var wire 1 8 m_axis_tdata [15] $end
$var wire 1 9 m_axis_tdata [14] $end
$var wire 1 : m_axis_tdata [13] $end
$var wire 1 ; m_axis_tdata [12] $end
$var wire 1 < m_axis_tdata [11] $end
$var wire 1 = m_axis_tdata [10] $end
$var wire 1 > m_axis_tdata [9] $end
$var wire 1 ? m_axis_tdata [8] $end
$var wire 1 @ m_axis_tdata [7] $end
$var wire 1 A m_axis_tdata [6] $end
$var wire 1 B m_axis_tdata [5] $end
$var wire 1 C m_axis_tdata [4] $end
$var wire 1 D m_axis_tdata [3] $end
$var wire 1 E m_axis_tdata [2] $end
$var wire 1 F m_axis_tdata [1] $end
$var wire 1 G m_axis_tdata [0] $end
$var wire 1 H m_axis_tvalid $end
$var wire 1 I m_axis_tready $end
$var wire 1 J rxd $end
$var wire 1 M busy $end
$var wire 1 N overrun_error $end
$var wire 1 O frame_error $end
$var wire 1 P prescale [15] $end
$var wire 1 Q prescale [14] $end
$var wire 1 R prescale [13] $end
$var wire 1 S prescale [12] $end
$var wire 1 T prescale [11] $end
$var wire 1 U prescale [10] $end
$var wire 1 V prescale [9] $end
$var wire 1 W prescale [8] $end
$var wire 1 X prescale [7] $end
$var wire 1 Y prescale [6] $end
$var wire 1 Z prescale [5] $end
$var wire 1 [ prescale [4] $end
$var wire 1 \ prescale [3] $end
$var wire 1 ] prescale [2] $end
$var wire 1 ^ prescale [1] $end
$var wire 1 _ prescale [0] $end
$var reg 16 h m_axis_tdata_reg [15:0] $end
$var reg 1 i m_axis_tvalid_reg $end
$var reg 1 j rxd_reg $end
$var reg 1 k busy_reg $end
$var reg 1 l overrun_error_reg $end
$var reg 1 m frame_error_reg $end
$var reg 16 n data_reg [15:0] $end
$var reg 19 o prescale_reg [18:0] $end
$var reg 5 p bit_cnt [4:0] $end
$upscope $end
$upscope $end

$scope module inf $end
$var parameter 32 q DATA_WIDTH $end
$var wire 1 $ clk $end
$var wire 1 % rst $end
$var reg 16 r s_axis_tdata [15:0] $end
$var reg 1 s s_axis_tvalid $end
$var reg 1 t s_axis_tready $end
$var reg 8 u s_tid [7:0] $end
$var reg 1 v s_tlast $end
$var reg 4 w s_tdest [3:0] $end
$var reg 2 x s_tstrb [1:0] $end
$var reg 2 y s_tkeep [1:0] $end
$var reg 8 z m_tid [7:0] $end
$var reg 1 { m_tlast $end
$var reg 4 | m_tdest [3:0] $end
$var reg 2 } m_tstrb [1:0] $end
$var reg 2 ~ m_tkeep [1:0] $end
$var reg 16 !! m_axis_tdata [15:0] $end
$var reg 1 "! m_axis_tvalid $end
$var reg 1 #! m_axis_tready $end
$var reg 1 $! rxd $end
$var reg 1 %! txd $end
$var reg 1 &! tx_busy $end
$var reg 1 '! rx_busy $end
$var reg 1 (! rx_overrun_error $end
$var reg 1 )! rx_frame_error $end
$var reg 16 *! prescale [15:0] $end
$upscope $end
$upscope $end
$enddefinitions $end
#0
$dumpvars
0!
1"
bx r
xs
0t
bx u
xv
bx w
bx x
bx y
bx z
x{
bx |
bx }
bx ~
b0 !!
0"!
x#!
x$!
1%!
0&!
0'!
0(!
0)!
b1000 *!
0a
1b
0c
b0 d
b0 e
b0 f
b0 h
0i
1j
0k
0l
0m
b0 n
b0 o
b0 p
b10000 q
b10000 #
b10000 `
b10000 g
0$
1%
x5
x4
x3
x2
x1
x0
x/
x.
x-
x,
x+
x*
x)
x(
x'
x&
x6
07
0G
0F
0E
0D
0C
0B
0A
0@
0?
0>
0=
0<
0;
0:
09
08
0H
xI
1J
1K
0L
0M
0N
0O
0_
0^
0]
1\
0[
0Z
0Y
0X
0W
0V
0U
0T
0S
0R
0Q
0P
$end
#4000
1!
1$
0#!
0s
0v
b0 u
b0 w
b0 y
b0 x
b0 r
0I
06
05
04
03
02
01
00
0/
0.
0-
0,
0+
0*
0)
0(
0'
0&
#8000
0!
0$
#11000
0"
0%
#12000
1!
1$
1a
17
1t
#16000
0!
0$
#20000
1!
1$
#24000
0!
0$
#28000
1!
1$
#32000
0!
0$
#36000
1!
1$
#40000
0!
0$
#44000
1!
1$
#48000
0!
0$
#52000
1!
1$
#56000
0!
0$
#60000
1!
1$
#64000
0!
0$
#68000
1!
1$
#72000
0!
0$
#76000
1!
1$
#80000
0!
0$
#84000
1!
1$
#88000
0!
0$
#92000
1!
1$
1s
b11110000001100 r
b110110 u
b1110 w
b11 y
b11 x
16
13
12
1+
1*
1)
1(
#96000
0!
0$
#100000
1!
1$
0a
b111111 e
b10001 f
b10011110000001100 d
0b
1c
0s
b0 u
b0 w
b0 y
b0 x
b0 r
07
0K
1L
06
03
02
0+
0*
0)
0(
1&!
0%!
0t
0J
#104000
0!
0$
#108000
1!
1$
0j
b111110 e
#112000
0!
0$
#116000
1!
1$
b111101 e
b11110 o
b10010 p
1k
1M
1'!
#120000
0!
0$
#124000
1!
1$
b11101 o
b111100 e
#128000
0!
0$
#132000
1!
1$
b111011 e
b11100 o
#136000
0!
0$
#140000
1!
1$
b11011 o
b111010 e
#144000
0!
0$
#148000
1!
1$
b111001 e
b11010 o
#152000
0!
0$
#156000
1!
1$
b11001 o
b111000 e
#160000
0!
0$
#164000
1!
1$
b110111 e
b11000 o
#168000
0!
0$
#172000
1!
1$
b10111 o
b110110 e
#176000
0!
0$
#180000
1!
1$
b110101 e
b10110 o
#184000
0!
0$
#188000
1!
1$
b10101 o
b110100 e
#192000
0!
0$
#196000
1!
1$
b110011 e
b10100 o
#200000
0!
0$
#204000
1!
1$
b10011 o
b110010 e
#208000
0!
0$
#212000
1!
1$
b110001 e
b10010 o
#216000
0!
0$
#220000
1!
1$
b10001 o
b110000 e
#224000
0!
0$
#228000
1!
1$
b101111 e
b10000 o
#232000
0!
0$
#236000
1!
1$
b1111 o
b101110 e
#240000
0!
0$
#244000
1!
1$
b101101 e
b1110 o
#248000
0!
0$
#252000
1!
1$
b1101 o
b101100 e
#256000
0!
0$
#260000
1!
1$
b101011 e
b1100 o
#264000
0!
0$
#268000
1!
1$
b1011 o
b101010 e
#272000
0!
0$
#276000
1!
1$
b101001 e
b1010 o
#280000
0!
0$
#284000
1!
1$
b1001 o
b101000 e
#288000
0!
0$
#292000
1!
1$
b100111 e
b1000 o
#296000
0!
0$
#300000
1!
1$
b111 o
b100110 e
#304000
0!
0$
#308000
1!
1$
b100101 e
b110 o
#312000
0!
0$
#316000
1!
1$
b101 o
b100100 e
#320000
0!
0$
#324000
1!
1$
b100011 e
b100 o
#328000
0!
0$
#332000
1!
1$
b11 o
b100010 e
#336000
0!
0$
#340000
1!
1$
b100001 e
b10 o
#344000
0!
0$
#348000
1!
1$
b1 o
b100000 e
#352000
0!
0$
#356000
1!
1$
b11111 e
b0 o
#360000
0!
0$
#364000
1!
1$
b10001 p
b111111 o
b11110 e
#368000
0!
0$
#372000
1!
1$
b11101 e
b111110 o
#376000
0!
0$
#380000
1!
1$
b111101 o
b11100 e
#384000
0!
0$
#388000
1!
1$
b11011 e
b111100 o
#392000
0!
0$
#396000
1!
1$
b111011 o
b11010 e
#400000
0!
0$
#404000
1!
1$
b11001 e
b111010 o
#408000
0!
0$
#412000
1!
1$
b111001 o
b11000 e
#416000
0!
0$
#420000
1!
1$
b10111 e
b111000 o
#424000
0!
0$
#428000
1!
1$
b110111 o
b10110 e
#432000
0!
0$
#436000
1!
1$
b10101 e
b110110 o
#440000
0!
0$
#444000
1!
1$
b110101 o
b10100 e
#448000
0!
0$
#452000
1!
1$
b10011 e
b110100 o
#456000
0!
0$
#460000
1!
1$
b110011 o
b10010 e
#464000
0!
0$
#468000
1!
1$
b10001 e
b110010 o
#472000
0!
0$
#476000
1!
1$
b110001 o
b10000 e
#480000
0!
0$
#484000
1!
1$
b1111 e
b110000 o
#488000
0!
0$
#492000
1!
1$
b101111 o
b1110 e
#496000
0!
0$
#500000
1!
1$
b1101 e
b101110 o
#504000
0!
0$
#508000
1!
1$
b101101 o
b1100 e
#512000
0!
0$
#516000
1!
1$
b1011 e
b101100 o
#520000
0!
0$
#524000
1!
1$
b101011 o
b1010 e
#528000
0!
0$
#532000
1!
1$
b1001 e
b101010 o
#536000
0!
0$
#540000
1!
1$
b101001 o
b1000 e
#544000
0!
0$
#548000
1!
1$
b111 e
b101000 o
#552000
0!
0$
#556000
1!
1$
b100111 o
b110 e
#560000
0!
0$
#564000
1!
1$
b101 e
b100110 o
#568000
0!
0$
#572000
1!
1$
b100101 o
b100 e
#576000
0!
0$
#580000
1!
1$
b11 e
b100100 o
#584000
0!
0$
#588000
1!
1$
b100011 o
b10 e
#592000
0!
0$
#596000
1!
1$
b1 e
b100010 o
#600000
0!
0$
#604000
1!
1$
b100001 o
b0 e
#608000
0!
0$
#612000
1!
1$
b10000 f
b111111 e
b1001111000000110 d
b100000 o
#616000
0!
0$
#620000
1!
1$
b11111 o
b111110 e
#624000
0!
0$
#628000
1!
1$
b111101 e
b11110 o
#632000
0!
0$
#636000
1!
1$
b11101 o
b111100 e
#640000
0!
0$
#644000
1!
1$
b111011 e
b11100 o
#648000
0!
0$
#652000
1!
1$
b11011 o
b111010 e
#656000
0!
0$
#660000
1!
1$
b111001 e
b11010 o
#664000
0!
0$
#668000
1!
1$
b11001 o
b111000 e
#672000
0!
0$
#676000
1!
1$
b110111 e
b11000 o
#680000
0!
0$
#684000
1!
1$
b10111 o
b110110 e
#688000
0!
0$
#692000
1!
1$
b110101 e
b10110 o
#696000
0!
0$
#700000
1!
1$
b10101 o
b110100 e
#704000
0!
0$
#708000
1!
1$
b110011 e
b10100 o
#712000
0!
0$
#716000
1!
1$
b10011 o
b110010 e
#720000
0!
0$
#724000
1!
1$
b110001 e
b10010 o
#728000
0!
0$
#732000
1!
1$
b10001 o
b110000 e
#736000
0!
0$
#740000
1!
1$
b101111 e
b10000 o
#744000
0!
0$
#748000
1!
1$
b1111 o
b101110 e
#752000
0!
0$
#756000
1!
1$
b101101 e
b1110 o
#760000
0!
0$
#764000
1!
1$
b1101 o
b101100 e
#768000
0!
0$
#772000
1!
1$
b101011 e
b1100 o
#776000
0!
0$
#780000
1!
1$
b1011 o
b101010 e
#784000
0!
0$
#788000
1!
1$
b101001 e
b1010 o
#792000
0!
0$
#796000
1!
1$
b1001 o
b101000 e
#800000
0!
0$
#804000
1!
1$
b100111 e
b1000 o
#808000
0!
0$
#812000
1!
1$
b111 o
b100110 e
#816000
0!
0$
#820000
1!
1$
b100101 e
b110 o
#824000
0!
0$
#828000
1!
1$
b101 o
b100100 e
#832000
0!
0$
#836000
1!
1$
b100011 e
b100 o
#840000
0!
0$
#844000
1!
1$
b11 o
b100010 e
#848000
0!
0$
#852000
1!
1$
b100001 e
b10 o
#856000
0!
0$
#860000
1!
1$
b1 o
b100000 e
#864000
0!
0$
#868000
1!
1$
b11111 e
b0 o
#872000
0!
0$
#876000
1!
1$
b10000 p
b111111 o
b11110 e
#880000
0!
0$
#884000
1!
1$
b11101 e
b111110 o
#888000
0!
0$
#892000
1!
1$
b111101 o
b11100 e
#896000
0!
0$
#900000
1!
1$
b11011 e
b111100 o
#904000
0!
0$
#908000
1!
1$
b111011 o
b11010 e
#912000
0!
0$
#916000
1!
1$
b11001 e
b111010 o
#920000
0!
0$
#924000
1!
1$
b111001 o
b11000 e
#928000
0!
0$
#932000
1!
1$
b10111 e
b111000 o
#936000
0!
0$
#940000
1!
1$
b110111 o
b10110 e
#944000
0!
0$
#948000
1!
1$
b10101 e
b110110 o
#952000
0!
0$
#956000
1!
1$
b110101 o
b10100 e
#960000
0!
0$
#964000
1!
1$
b10011 e
b110100 o
#968000
0!
0$
#972000
1!
1$
b110011 o
b10010 e
#976000
0!
0$
#980000
1!
1$
b10001 e
b110010 o
#984000
0!
0$
#988000
1!
1$
b110001 o
b10000 e
#992000
0!
0$
#996000
1!
1$
b1111 e
b110000 o
#1000000
0!
0$
#1004000
1!
1$
b101111 o
b1110 e
#1008000
0!
0$
#1012000
1!
1$
b1101 e
b101110 o
#1016000
0!
0$
#1020000
1!
1$
b101101 o
b1100 e
#1024000
0!
0$
#1028000
1!
1$
b1011 e
b101100 o
#1032000
0!
0$
#1036000
1!
1$
b101011 o
b1010 e
#1040000
0!
0$
#1044000
1!
1$
b1001 e
b101010 o
#1048000
0!
0$
#1052000
1!
1$
b101001 o
b1000 e
#1056000
0!
0$
#1060000
1!
1$
b111 e
b101000 o
#1064000
0!
0$
#1068000
1!
1$
b100111 o
b110 e
#1072000
0!
0$
#1076000
1!
1$
b101 e
b100110 o
#1080000
0!
0$
#1084000
1!
1$
b100101 o
b100 e
#1088000
0!
0$
#1092000
1!
1$
b11 e
b100100 o
#1096000
0!
0$
#1100000
1!
1$
b100011 o
b10 e
#1104000
0!
0$
#1108000
1!
1$
b1 e
b100010 o
#1112000
0!
0$
#1116000
1!
1$
b100001 o
b0 e
#1120000
0!
0$
#1124000
1!
1$
b1111 f
b111111 e
b100111100000011 d
b100000 o
#1128000
0!
0$
#1132000
1!
1$
b11111 o
b111110 e
#1136000
0!
0$
#1140000
1!
1$
b111101 e
b11110 o
#1144000
0!
0$
#1148000
1!
1$
b11101 o
b111100 e
#1152000
0!
0$
#1156000
1!
1$
b111011 e
b11100 o
#1160000
0!
0$
#1164000
1!
1$
b11011 o
b111010 e
#1168000
0!
0$
#1172000
1!
1$
b111001 e
b11010 o
#1176000
0!
0$
#1180000
1!
1$
b11001 o
b111000 e
#1184000
0!
0$
#1188000
1!
1$
b110111 e
b11000 o
#1192000
0!
0$
#1196000
1!
1$
b10111 o
b110110 e
#1200000
0!
0$
#1204000
1!
1$
b110101 e
b10110 o
#1208000
0!
0$
#1212000
1!
1$
b10101 o
b110100 e
#1216000
0!
0$
#1220000
1!
1$
b110011 e
b10100 o
#1224000
0!
0$
#1228000
1!
1$
b10011 o
b110010 e
#1232000
0!
0$
#1236000
1!
1$
b110001 e
b10010 o
#1240000
0!
0$
#1244000
1!
1$
b10001 o
b110000 e
#1248000
0!
0$
#1252000
1!
1$
b101111 e
b10000 o
#1256000
0!
0$
#1260000
1!
1$
b1111 o
b101110 e
#1264000
0!
0$
#1268000
1!
1$
b101101 e
b1110 o
#1272000
0!
0$
#1276000
1!
1$
b1101 o
b101100 e
#1280000
0!
0$
#1284000
1!
1$
b101011 e
b1100 o
#1288000
0!
0$
#1292000
1!
1$
b1011 o
b101010 e
#1296000
0!
0$
#1300000
1!
1$
b101001 e
b1010 o
#1304000
0!
0$
#1308000
1!
1$
b1001 o
b101000 e
#1312000
0!
0$
#1316000
1!
1$
b100111 e
b1000 o
#1320000
0!
0$
#1324000
1!
1$
b111 o
b100110 e
#1328000
0!
0$
#1332000
1!
1$
b100101 e
b110 o
#1336000
0!
0$
#1340000
1!
1$
b101 o
b100100 e
#1344000
0!
0$
#1348000
1!
1$
b100011 e
b100 o
#1352000
0!
0$
#1356000
1!
1$
b11 o
b100010 e
#1360000
0!
0$
#1364000
1!
1$
b100001 e
b10 o
#1368000
0!
0$
#1372000
1!
1$
b1 o
b100000 e
#1376000
0!
0$
#1380000
1!
1$
b11111 e
b0 o
#1384000
0!
0$
#1388000
1!
1$
b1111 p
b111111 o
b11110 e
#1392000
0!
0$
#1396000
1!
1$
b11101 e
b111110 o
#1400000
0!
0$
#1404000
1!
1$
b111101 o
b11100 e
#1408000
0!
0$
#1412000
1!
1$
b11011 e
b111100 o
#1416000
0!
0$
#1420000
1!
1$
b111011 o
b11010 e
#1424000
0!
0$
#1428000
1!
1$
b11001 e
b111010 o
#1432000
0!
0$
#1436000
1!
1$
b111001 o
b11000 e
#1440000
0!
0$
#1444000
1!
1$
b10111 e
b111000 o
#1448000
0!
0$
#1452000
1!
1$
b110111 o
b10110 e
#1456000
0!
0$
#1460000
1!
1$
b10101 e
b110110 o
#1464000
0!
0$
#1468000
1!
1$
b110101 o
b10100 e
#1472000
0!
0$
#1476000
1!
1$
b10011 e
b110100 o
#1480000
0!
0$
#1484000
1!
1$
b110011 o
b10010 e
#1488000
0!
0$
#1492000
1!
1$
b10001 e
b110010 o
#1496000
0!
0$
#1500000
1!
1$
b110001 o
b10000 e
#1504000
0!
0$
#1508000
1!
1$
b1111 e
b110000 o
#1512000
0!
0$
#1516000
1!
1$
b101111 o
b1110 e
#1520000
0!
0$
#1524000
1!
1$
b1101 e
b101110 o
#1528000
0!
0$
#1532000
1!
1$
b101101 o
b1100 e
#1536000
0!
0$
#1540000
1!
1$
b1011 e
b101100 o
#1544000
0!
0$
#1548000
1!
1$
b101011 o
b1010 e
#1552000
0!
0$
#1556000
1!
1$
b1001 e
b101010 o
#1560000
0!
0$
#1564000
1!
1$
b101001 o
b1000 e
#1568000
0!
0$
#1572000
1!
1$
b111 e
b101000 o
#1576000
0!
0$
#1580000
1!
1$
b100111 o
b110 e
#1584000
0!
0$
#1588000
1!
1$
b101 e
b100110 o
#1592000
0!
0$
#1596000
1!
1$
b100101 o
b100 e
#1600000
0!
0$
#1604000
1!
1$
b11 e
b100100 o
#1608000
0!
0$
#1612000
1!
1$
b100011 o
b10 e
#1616000
0!
0$
#1620000
1!
1$
b1 e
b100010 o
#1624000
0!
0$
#1628000
1!
1$
b100001 o
b0 e
#1632000
0!
0$
#1636000
1!
1$
b1110 f
b111111 e
1b
b10011110000001 d
b100000 o
1K
1%!
1J
#1640000
0!
0$
#1644000
1!
1$
1j
b11111 o
b111110 e
#1648000
0!
0$
#1652000
1!
1$
b111101 e
b11110 o
#1656000
0!
0$
#1660000
1!
1$
b11101 o
b111100 e
#1664000
0!
0$
#1668000
1!
1$
b111011 e
b11100 o
#1672000
0!
0$
#1676000
1!
1$
b11011 o
b111010 e
#1680000
0!
0$
#1684000
1!
1$
b111001 e
b11010 o
#1688000
0!
0$
#1692000
1!
1$
b11001 o
b111000 e
#1696000
0!
0$
#1700000
1!
1$
b110111 e
b11000 o
#1704000
0!
0$
#1708000
1!
1$
b10111 o
b110110 e
#1712000
0!
0$
#1716000
1!
1$
b110101 e
b10110 o
#1720000
0!
0$
#1724000
1!
1$
b10101 o
b110100 e
#1728000
0!
0$
#1732000
1!
1$
b110011 e
b10100 o
#1736000
0!
0$
#1740000
1!
1$
b10011 o
b110010 e
#1744000
0!
0$
#1748000
1!
1$
b110001 e
b10010 o
#1752000
0!
0$
#1756000
1!
1$
b10001 o
b110000 e
#1760000
0!
0$
#1764000
1!
1$
b101111 e
b10000 o
#1768000
0!
0$
#1772000
1!
1$
b1111 o
b101110 e
#1776000
0!
0$
#1780000
1!
1$
b101101 e
b1110 o
#1784000
0!
0$
#1788000
1!
1$
b1101 o
b101100 e
#1792000
0!
0$
#1796000
1!
1$
b101011 e
b1100 o
#1800000
0!
0$
#1804000
1!
1$
b1011 o
b101010 e
#1808000
0!
0$
#1812000
1!
1$
b101001 e
b1010 o
#1816000
0!
0$
#1820000
1!
1$
b1001 o
b101000 e
#1824000
0!
0$
#1828000
1!
1$
b100111 e
b1000 o
#1832000
0!
0$
#1836000
1!
1$
b111 o
b100110 e
#1840000
0!
0$
#1844000
1!
1$
b100101 e
b110 o
#1848000
0!
0$
#1852000
1!
1$
b101 o
b100100 e
#1856000
0!
0$
#1860000
1!
1$
b100011 e
b100 o
#1864000
0!
0$
#1868000
1!
1$
b11 o
b100010 e
#1872000
0!
0$
#1876000
1!
1$
b100001 e
b10 o
#1880000
0!
0$
#1884000
1!
1$
b1 o
b100000 e
#1888000
0!
0$
#1892000
1!
1$
b11111 e
b0 o
#1896000
0!
0$
#1900000
1!
1$
b1110 p
b111111 o
b1000000000000000 n
b11110 e
#1904000
0!
0$
#1908000
1!
1$
b11101 e
b111110 o
#1912000
0!
0$
#1916000
1!
1$
b111101 o
b11100 e
#1920000
0!
0$
#1924000
1!
1$
b11011 e
b111100 o
#1928000
0!
0$
#1932000
1!
1$
b111011 o
b11010 e
#1936000
0!
0$
#1940000
1!
1$
b11001 e
b111010 o
#1944000
0!
0$
#1948000
1!
1$
b111001 o
b11000 e
#1952000
0!
0$
#1956000
1!
1$
b10111 e
b111000 o
#1960000
0!
0$
#1964000
1!
1$
b110111 o
b10110 e
#1968000
0!
0$
#1972000
1!
1$
b10101 e
b110110 o
#1976000
0!
0$
#1980000
1!
1$
b110101 o
b10100 e
#1984000
0!
0$
#1988000
1!
1$
b10011 e
b110100 o
#1992000
0!
0$
#1996000
1!
1$
b110011 o
b10010 e
#2000000
0!
0$
#2004000
1!
1$
b10001 e
b110010 o
#2008000
0!
0$
#2012000
1!
1$
b110001 o
b10000 e
#2016000
0!
0$
#2020000
1!
1$
b1111 e
b110000 o
#2024000
0!
0$
#2028000
1!
1$
b101111 o
b1110 e
#2032000
0!
0$
#2036000
1!
1$
b1101 e
b101110 o
#2040000
0!
0$
#2044000
1!
1$
b101101 o
b1100 e
#2048000
0!
0$
#2052000
1!
1$
b1011 e
b101100 o
#2056000
0!
0$
#2060000
1!
1$
b101011 o
b1010 e
#2064000
0!
0$
#2068000
1!
1$
b1001 e
b101010 o
#2072000
0!
0$
#2076000
1!
1$
b101001 o
b1000 e
#2080000
0!
0$
#2084000
1!
1$
b111 e
b101000 o
#2088000
0!
0$
#2092000
1!
1$
b100111 o
b110 e
#2096000
0!
0$
#2100000
1!
1$
b101 e
b100110 o
#2104000
0!
0$
#2108000
1!
1$
b100101 o
b100 e
#2112000
0!
0$
#2116000
1!
1$
b11 e
b100100 o
#2120000
0!
0$
#2124000
1!
1$
b100011 o
b10 e
#2128000
0!
0$
#2132000
1!
1$
b1 e
b100010 o
#2136000
0!
0$
#2140000
1!
1$
b100001 o
b0 e
#2144000
0!
0$
#2148000
1!
1$
b1101 f
b111111 e
b1001111000000 d
b100000 o
#2152000
0!
0$
#2156000
1!
1$
b11111 o
b111110 e
#2160000
0!
0$
#2164000
1!
1$
b111101 e
b11110 o
#2168000
0!
0$
#2172000
1!
1$
b11101 o
b111100 e
#2176000
0!
0$
#2180000
1!
1$
b111011 e
b11100 o
#2184000
0!
0$
#2188000
1!
1$
b11011 o
b111010 e
#2192000
0!
0$
#2196000
1!
1$
b111001 e
b11010 o
#2200000
0!
0$
#2204000
1!
1$
b11001 o
b111000 e
#2208000
0!
0$
#2212000
1!
1$
b110111 e
b11000 o
#2216000
0!
0$
#2220000
1!
1$
b10111 o
b110110 e
#2224000
0!
0$
#2228000
1!
1$
b110101 e
b10110 o
#2232000
0!
0$
#2236000
1!
1$
b10101 o
b110100 e
#2240000
0!
0$
#2244000
1!
1$
b110011 e
b10100 o
#2248000
0!
0$
#2252000
1!
1$
b10011 o
b110010 e
#2256000
0!
0$
#2260000
1!
1$
b110001 e
b10010 o
#2264000
0!
0$
#2268000
1!
1$
b10001 o
b110000 e
#2272000
0!
0$
#2276000
1!
1$
b101111 e
b10000 o
#2280000
0!
0$
#2284000
1!
1$
b1111 o
b101110 e
#2288000
0!
0$
#2292000
1!
1$
b101101 e
b1110 o
#2296000
0!
0$
#2300000
1!
1$
b1101 o
b101100 e
#2304000
0!
0$
#2308000
1!
1$
b101011 e
b1100 o
#2312000
0!
0$
#2316000
1!
1$
b1011 o
b101010 e
#2320000
0!
0$
#2324000
1!
1$
b101001 e
b1010 o
#2328000
0!
0$
#2332000
1!
1$
b1001 o
b101000 e
#2336000
0!
0$
#2340000
1!
1$
b100111 e
b1000 o
#2344000
0!
0$
#2348000
1!
1$
b111 o
b100110 e
#2352000
0!
0$
#2356000
1!
1$
b100101 e
b110 o
#2360000
0!
0$
#2364000
1!
1$
b101 o
b100100 e
#2368000
0!
0$
#2372000
1!
1$
b100011 e
b100 o
#2376000
0!
0$
#2380000
1!
1$
b11 o
b100010 e
#2384000
0!
0$
#2388000
1!
1$
b100001 e
b10 o
#2392000
0!
0$
#2396000
1!
1$
b1 o
b100000 e
#2400000
0!
0$
#2404000
1!
1$
b11111 e
b0 o
#2408000
0!
0$
#2412000
1!
1$
b1101 p
b111111 o
b1100000000000000 n
b11110 e
#2416000
0!
0$
#2420000
1!
1$
b11101 e
b111110 o
#2424000
0!
0$
#2428000
1!
1$
b111101 o
b11100 e
#2432000
0!
0$
#2436000
1!
1$
b11011 e
b111100 o
#2440000
0!
0$
#2444000
1!
1$
b111011 o
b11010 e
#2448000
0!
0$
#2452000
1!
1$
b11001 e
b111010 o
#2456000
0!
0$
#2460000
1!
1$
b111001 o
b11000 e
#2464000
0!
0$
#2468000
1!
1$
b10111 e
b111000 o
#2472000
0!
0$
#2476000
1!
1$
b110111 o
b10110 e
#2480000
0!
0$
#2484000
1!
1$
b10101 e
b110110 o
#2488000
0!
0$
#2492000
1!
1$
b110101 o
b10100 e
#2496000
0!
0$
#2500000
1!
1$
b10011 e
b110100 o
#2504000
0!
0$
#2508000
1!
1$
b110011 o
b10010 e
#2512000
0!
0$
#2516000
1!
1$
b10001 e
b110010 o
#2520000
0!
0$
#2524000
1!
1$
b110001 o
b10000 e
#2528000
0!
0$
#2532000
1!
1$
b1111 e
b110000 o
#2536000
0!
0$
#2540000
1!
1$
b101111 o
b1110 e
#2544000
0!
0$
#2548000
1!
1$
b1101 e
b101110 o
#2552000
0!
0$
#2556000
1!
1$
b101101 o
b1100 e
#2560000
0!
0$
#2564000
1!
1$
b1011 e
b101100 o
#2568000
0!
0$
#2572000
1!
1$
b101011 o
b1010 e
