sim/uart_axi4_stream.vcd
$date
   Wed Sep 29 11:16:42 2021
$end
$version
  2020.2
$end
$timescale
  1ps
$end
$scope module top $end
$var reg 1 ! clk $end
$var reg 1 " rst $end
$scope module inf $end
$var wire 1 # clk $end
$var wire 1 $ rst $end
$var reg 32 % s_axis_tdata [31:0] $end
$var reg 1 & s_axis_tvalid $end
$var reg 1 ' s_axis_tready $end
$var reg 8 ( tid [7:0] $end
$var reg 1 ) tlast $end
$var reg 4 * tdest [3:0] $end
$var reg 4 + tstrb [3:0] $end
$var reg 4 , tkeep [3:0] $end
$var reg 32 - m_axis_tdata [31:0] $end
$var reg 1 . m_axis_tvalid $end
$var reg 1 / m_axis_tready $end
$var parameter 32 0 DATA_WIDTH [31:0] $end
$upscope $end
$upscope $end
$enddefinitions $end
#0
$dumpvars
0!
1"
0#
1$
bx %
x&
x'
bx (
x)
bx *
bx +
bx ,
bx -
x.
x/
b100000 0
$end
#4000
1!
1#
b0 %
0&
0'
b0 (
0)
b0 *
b0 +
b0 ,
b0 -
0.
0/
#8000
0!
0#
#11000
0"
0$
#12000
1!
1#
#16000
0!
0#
#20000
1!
1#
#24000
0!
0#
#28000
1!
1#
#32000
0!
0#
#36000
1!
1#
#40000
0!
0#
#44000
1!
1#
#48000
0!
0#
#52000
1!
1#
#56000
0!
0#
#60000
1!
1#
#64000
0!
0#
#68000
1!
1#
#72000
0!
0#
#76000
1!
1#
#80000
0!
0#
#84000
1!
1#
#88000
0!
0#
#92000
1!
1#
#96000
0!
0#
#100000
1!
1#
#104000
0!
0#
#108000
1!
1#
b11011100001101001000000011100111 %
1&
b1100010 (
b1010 *
b111 +
b1111 ,
b11011100001101001000000011100111 -
1.
#112000
0!
0#
#116000
1!
1#
1'
1/
#120000
0!
0#
#124000
1!
1#
b0 %
0&
0'
b0 (
b0 *
b0 +
b0 ,
b0 -
0.
0/
#128000
0!
0#
#132000
1!
1#
#136000
0!
0#
#140000
1!
1#
#144000
0!
0#
#148000
1!
1#
#152000
0!
0#
#156000
1!
1#
#160000
0!
0#
#164000
1!
1#
#168000
0!
0#
#172000
1!
1#
#176000
0!
0#
#180000
1!
1#
#184000
0!
0#
#188000
1!
1#
#192000
0!
0#
#196000
1!
1#
b110010001101001101010011101100 %
1&
b1100000 (
b111 *
b1111 +
b1111 ,
b110010001101001101010011101100 -
1.
#200000
0!
0#
#204000
1!
1#
1'
1/
#208000
0!
0#
#212000
1!
1#
b0 %
0&
0'
b0 (
b0 *
b0 +
b0 ,
b0 -
0.
0/
#216000
0!
0#
#220000
1!
1#
1'
1/
#224000
0!
0#
#228000
1!
1#
#232000
0!
0#
#236000
1!
1#
#240000
0!
0#
#244000
1!
1#
#248000
0!
0#
#252000
1!
1#
#256000
0!
0#
#260000
1!
1#
#264000
0!
0#
#268000
1!
1#
#272000
0!
0#
#276000
1!
1#
#280000
0!
0#
#284000
1!
1#
b10110010100101110111011000000001 %
1&
b1111111 (
b111 *
b1111 +
b1111 ,
b10110010100101110111011000000001 -
1.
#288000
0!
0#
#292000
1!
1#
b0 %
0&
0'
b0 (
b0 *
b0 +
b0 ,
b0 -
0.
0/
#296000
0!
0#
#300000
1!
1#
1'
1/
#304000
0!
0#
#308000
1!
1#
#312000
0!
0#
#316000
1!
1#
#320000
0!
0#
#324000
1!
1#
#328000
0!
0#
#332000
1!
1#
#336000
0!
0#
#340000
1!
1#
#344000
0!
0#
#348000
1!
1#
#352000
0!
0#
#356000
1!
1#
#360000
0!
0#
#364000
1!
1#
#368000
0!
0#
#372000
1!
1#
#376000
0!
0#
#380000
1!
1#
#384000
0!
0#
#388000
1!
1#
#392000
0!
0#
#396000
1!
1#
#400000
0!
0#
#404000
1!
1#
b10110000111101011000101111001101 %
1&
b1101 (
b1111 +
b1111 ,
b10110000111101011000101111001101 -
1.
#408000
0!
0#
#412000
1!
1#
b0 %
0&
0'
b0 (
b0 +
b0 ,
b0 -
0.
0/
#416000
0!
0#
#420000
1!
1#
#424000
0!
0#
#428000
1!
1#
#432000
0!
0#
#436000
1!
1#
#440000
0!
0#
#444000
1!
1#
#448000
0!
0#
#452000
1!
1#
#456000
0!
0#
#460000
1!
1#
b1110100010011100000011100001 %
1&
b100 (
b1010 *
b1111 +
b1111 ,
b1110100010011100000011100001 -
1.
#464000
0!
0#
#468000
1!
1#
1'
1/
#472000
0!
0#
#476000
1!
1#
b0 %
0&
0'
b0 (
b0 *
b0 +
b0 ,
b0 -
0.
0/
#480000
0!
0#
#484000
1!
1#
#488000
0!
0#
#492000
1!
1#
#496000
0!
0#
#500000
1!
1#
#504000
0!
0#
#508000
1!
1#
#512000
0!
0#
#516000
1!
1#
#520000
0!
0#
#524000
1!
1#
#528000
0!
0#
#532000
1!
1#
#536000
0!
0#
#540000
1!
1#
#544000
0!
0#
#548000
1!
1#
#552000
0!
0#
#556000
1!
1#
#560000
0!
0#
#564000
1!
1#
#568000
0!
0#
#572000
1!
1#
b110010001110010110110000000000 %
1&
b1100000 (
b1 *
b1111 +
b1111 ,
b110010001110010110110000000000 -
1.
#576000
0!
0#
#580000
1!
1#
1'
1/
#584000
0!
0#
#588000
1!
1#
b0 %
0&
0'
b0 (
b0 *
b0 +
b0 ,
b0 -
0.
0/
#592000
0!
0#
#596000
1!
1#
1'
1/
#600000
0!
0#
#604000
1!
1#
#608000
0!
0#
#612000
1!
1#
#616000
0!
0#
#620000
1!
1#
#624000
0!
0#
#628000
1!
1#
#632000
0!
0#
#636000
1!
1#
#640000
0!
0#
#644000
1!
1#
#648000
0!
0#
#652000
1!
1#
#656000
0!
0#
#660000
1!
1#
#664000
0!
0#
#668000
1!
1#
#672000
0!
0#
#676000
1!
1#
#680000
0!
0#
#684000
1!
1#
#688000
0!
0#
#692000
1!
1#
#696000
0!
0#
#700000
1!
1#
#704000
0!
0#
#708000
1!
1#
#712000
0!
0#
#716000
1!
1#
#720000
0!
0#
#724000
1!
1#
b110111011101111101110001101011 %
1&
b111110 (
b111 *
b1100 +
b1111 ,
b110111011101111101110001101011 -
1.
#728000
0!
0#
#732000
1!
1#
b0 %
0&
0'
b0 (
b0 *
b0 +
b0 ,
b0 -
0.
0/
#736000
0!
0#
#740000
1!
1#
#744000
0!
0#
#748000
1!
1#
#752000
0!
0#
#756000
1!
1#
#760000
0!
0#
#764000
1!
1#
#768000
0!
0#
#772000
1!
1#
#776000
0!
0#
#780000
1!
1#
#784000
0!
0#
#788000
1!
1#
#792000
0!
0#
#796000
1!
1#
#800000
0!
0#
#804000
1!
1#
#808000
0!
0#
#812000
1!
1#
b1001110001011110001101110111 %
1&
b1001110 (
b1101 *
b1100 +
b1111 ,
b1001110001011110001101110111 -
1.
#816000
0!
0#
#820000
1!
1#
1'
1/
#824000
0!
0#
#828000
1!
1#
b0 %
0&
0'
b0 (
b0 *
b0 +
b0 ,
b0 -
0.
0/
#832000
0!
0#
#836000
1!
1#
1'
1/
#840000
0!
0#
#844000
1!
1#
#848000
0!
0#
#852000
1!
1#
#856000
0!
0#
#860000
1!
1#
#864000
0!
0#
#868000
1!
1#
#872000
0!
0#
#876000
1!
1#
#880000
0!
0#
#884000
1!
1#
#888000
0!
0#
#892000
1!
1#
#896000
0!
0#
#900000
1!
1#
#904000
0!
0#
#908000
1!
1#
#912000
0!
0#
#916000
1!
1#
#920000
0!
0#
#924000
1!
1#
#928000
0!
0#
#932000
1!
1#
#936000
0!
0#
#940000
1!
1#
#944000
0!
0#
#948000
1!
1#
#952000
0!
0#
#956000
1!
1#
#960000
0!
0#
#964000
1!
1#
#968000
0!
0#
#972000
1!
1#
#976000
0!
0#
#980000
1!
1#
b11001010101100001011000100100011 %
1&
b101001 (
b1110 *
b11 +
b1111 ,
b11001010101100001011000100100011 -
1.
#984000
0!
0#
#988000
1!
1#
b0 %
0&
0'
b0 (
b0 *
b0 +
b0 ,
b0 -
0.
0/
#992000
0!
0#
#996000
1!
1#
#1000000
0!
0#
#1004000
1!
1#
#1008000
0!
0#
#1012000
1!
1#
#1016000
0!
0#
#1020000
1!
1#
#1024000
0!
0#
#1028000
1!
1#
#1032000
0!
0#
#1036000
1!
1#
b100100011000101101011111101011 %
1&
b1011010 (
b10 *
b1111 +
b1111 ,
b100100011000101101011111101011 -
1.
#1040000
0!
0#
#1044000
1!
1#
1'
1/
#1048000
0!
0#
#1052000
1!
1#
b0 %
0&
0'
b0 (
b0 *
b0 +
b0 ,
b0 -
0.
0/
#1056000
0!
0#
#1060000
1!
1#
#1064000
0!
0#
#1068000
1!
1#
#1072000
0!
0#
#1076000
1!
1#
#1080000
0!
0#
#1084000
1!
1#
#1088000
0!
0#
#1092000
1!
1#
#1096000
0!
0#
#1100000
1!
1#
b11100111011001011111111000111011 %
1&
b1010100 (
b111 *
b1111 +
b1111 ,
b11100111011001011111111000111011 -
1.
#1104000
0!
0#
#1108000
1!
1#
1'
1/
#1112000
0!
0#
#1116000
1!
1#
b0 %
0&
0'
b0 (
b0 *
b0 +
b0 ,
b0 -
0.
0/
#1120000
0!
0#
#1124000
1!
1#
1'
1/
#1128000
0!
0#
#1132000
1!
1#
#1136000
0!
0#
#1140000
1!
1#
#1144000
0!
0#
#1148000
1!
1#
#1152000
0!
0#
#1156000
1!
1#
#1160000
0!
0#
#1164000
1!
1#
#1168000
0!
0#
#1172000
1!
1#
#1176000
0!
0#
#1180000
1!
1#
#1184000
0!
0#
#1188000
1!
1#
#1192000
0!
0#
#1196000
1!
1#
#1200000
0!
0#
#1204000
1!
1#
#1208000
0!
0#
#1212000
1!
1#
#1216000
0!
0#
#1220000
1!
1#
#1224000
0!
0#
#1228000
1!
1#
#1232000
0!
0#
#1236000
1!
1#
#1240000
0!
0#
#1244000
1!
1#
#1248000
0!
0#
#1252000
1!
1#
#1256000
0!
0#
#1260000
1!
1#
#1264000
0!
0#
#1268000
1!
1#
#1272000
0!
0#
#1276000
1!
1#
b11110101101010001011000100100001 %
1&
b1110101 (
b1000 *
b1111 +
b1111 ,
b11110101101010001011000100100001 -
1.
#1280000
0!
0#
#1284000
1!
1#
b0 %
0&
0'
b0 (
b0 *
b0 +
b0 ,
b0 -
0.
0/
